Ignore message if "drobdb" fails
OSDB 0.17

Invoked: bin/osdb-pg --dbuser riebs --datadir /tmp/data --postgresql=no_hash_index --short
Compile-time options: none
Restrictions: none

                 create_tables()	0.01 seconds	return value = 0
                          load()	1.92 seconds	return value = 0
     create_idx_uniques_key_bt()	1.15 seconds	return value = 0
     create_idx_updates_key_bt()	1.10 seconds	return value = 0
     create_idx_hundred_key_bt()	1.10 seconds	return value = 0
      create_idx_tenpct_key_bt()	0.77 seconds	return value = 0
 create_idx_tenpct_key_code_bt()	0.17 seconds	return value = 0
        create_idx_tiny_key_bt()	0.01 seconds	return value = 0
      create_idx_tenpct_int_bt()	0.11 seconds	return value = 0
   create_idx_tenpct_signed_bt()	0.12 seconds	return value = 0
     create_idx_uniques_code_h()	0.33 seconds	return value = 0
   create_idx_tenpct_double_bt()	0.14 seconds	return value = 0
   create_idx_updates_decim_bt()	0.26 seconds	return value = 0
    create_idx_tenpct_float_bt()	0.14 seconds	return value = 0
     create_idx_updates_int_bt()	0.11 seconds	return value = 0
    create_idx_tenpct_decim_bt()	0.21 seconds	return value = 0
     create_idx_hundred_code_h()	0.34 seconds	return value = 0
      create_idx_tenpct_name_h()	0.30 seconds	return value = 0
     create_idx_updates_code_h()	0.28 seconds	return value = 0
      create_idx_tenpct_code_h()	0.28 seconds	return value = 0
  create_idx_updates_double_bt()	0.12 seconds	return value = 0
NOTICE:  ALTER TABLE will create implicit trigger(s) for FOREIGN KEY check(s)
    create_idx_hundred_foreign()	1.10 seconds	return value = 0
              populateDataBase()	8.14 seconds	return value = 0

Logical database size 10.0000MB (9.5367MiB, 25000 tuples/relation)

                      sel_1_cl()	0.01 seconds	return value = 1
                     join_3_cl()	0.00 seconds	return value = 0
                   sel_100_ncl()	0.04 seconds	return value = 100
                    table_scan()	0.03 seconds	return value = 0
                      agg_func()	0.73 seconds	return value = 100
                      agg_scal()	0.03 seconds	return value = 0
                    sel_100_cl()	0.04 seconds	return value = 100
                    join_3_ncl()	0.13 seconds	return value = 1
                 sel_10pct_ncl()	0.01 seconds	return value = 1
             agg_simple_report()	1.44 seconds	return value = 990310457
            agg_info_retrieval()	0.00 seconds	return value = 0
               agg_create_view()	0.01 seconds	return value = 0
           agg_subtotal_report()	0.15 seconds	return value = 238
              agg_total_report()	0.13 seconds	return value = 20566722
                     join_2_cl()	0.00 seconds	return value = 0
                        join_2()	0.09 seconds	return value = 0
       sel_variable_select_low()	0.03 seconds	return value = 0
      sel_variable_select_high()	0.32 seconds	return value = 6110
                     join_4_cl()	0.00 seconds	return value = 0
                      proj_100()	1.23 seconds	return value = 9174
                    join_4_ncl()	0.22 seconds	return value = 1
                    proj_10pct()	0.49 seconds	return value = 2500
                     sel_1_ncl()	0.00 seconds	return value = 1
                    join_2_ncl()	0.08 seconds	return value = 1
                integrity_test()	0.08 seconds	return value = 0
             drop_updates_keys()	0.00 seconds	return value = 0
                     bulk_save()	0.02 seconds	return value = 0
                   bulk_modify()	32.83 seconds	return value = 0
          upd_append_duplicate()	0.00 seconds	return value = 0
          upd_remove_duplicate()	0.00 seconds	return value = 0
WARNING:  BEGIN: already a transaction in progress
                 upd_app_t_mid()	0.00 seconds	return value = 1
                 upd_mod_t_mid()	0.04 seconds	return value = 0
                 upd_del_t_mid()	0.03 seconds	return value = 0
                 upd_app_t_end()	0.00 seconds	return value = 1
                 upd_mod_t_end()	0.04 seconds	return value = 0
                 upd_del_t_end()	0.03 seconds	return value = 0
     create_idx_updates_code_h()	0.29 seconds	return value = 0
                 upd_app_t_mid()	0.00 seconds	return value = 1
                 upd_mod_t_cod()	0.00 seconds	return value = 0
                 upd_del_t_mid()	0.04 seconds	return value = 0
     create_idx_updates_int_bt()	0.11 seconds	return value = 0
                 upd_app_t_mid()	0.00 seconds	return value = 1
                 upd_mod_t_int()	0.00 seconds	return value = 0
                 upd_del_t_mid()	0.04 seconds	return value = 0
                   bulk_append()	0.08 seconds	return value = 0
                   bulk_delete()	32.96 seconds	return value = 0

Single User Test	71.80 seconds	(0:01:11.80)


Starting multi-user test
Executing multi-user tests with 2 user tasks
warming up: 1 minute to go 
Proceeding with 5 minute test
	(running it for 1 minute)
Mixed IR (tup/sec)	1205.63	returned in 1.00 minutes (72338 tuples)
                     sel_1_ncl()	0.00 seconds	return value = 1
             agg_simple_report()	1.48 seconds	return value = 990310457
                mu_sel_100_seq()	0.01 seconds	return value = 0
               mu_sel_100_rand()	0.01 seconds	return value = 0
          mu_mod_100_seq_abort()	0.02 seconds	return value = 0
               mu_mod_100_rand()	0.03 seconds	return value = 0
              mu_unmod_100_seq()	0.02 seconds	return value = 0
             mu_unmod_100_rand()	0.03 seconds	return value = 0
crossSectionTests(Mixed IR)	1.60
           mu_checkmod_100_seq()	0.02 seconds	return value = 100
          mu_checkmod_100_rand()	0.01 seconds	return value = 100
warming up: 1 minute to go 
Proceeding with 5 minute test
	(running it for 1 minute)
Mixed OLTP (tup/sec)	1615.27	returned in 1.00 minutes (96916 tuples)
                     sel_1_ncl()	0.00 seconds	return value = 1
             agg_simple_report()	13.93 seconds	return value = 990310457
                mu_sel_100_seq()	0.02 seconds	return value = 0
               mu_sel_100_rand()	0.01 seconds	return value = 0
          mu_mod_100_seq_abort()	1.22 seconds	return value = 0
               mu_mod_100_rand()	0.03 seconds	return value = 0
              mu_unmod_100_seq()	0.03 seconds	return value = 0
             mu_unmod_100_rand()	0.04 seconds	return value = 0
crossSectionTests(Mixed OLTP)	15.28
           mu_checkmod_100_seq()	0.02 seconds	return value = 100
          mu_checkmod_100_rand()	0.02 seconds	return value = 100

Multi-User Test	260.97 seconds	(0:04:20.97)

