message,	milliseconds,	containerID,	...other
METRIC: QUERY START_TIME, 1517691204511, with READY msg from leaf container C4-47,
METRIC: BEGIN INPUT ROWS INSERTION at time, 1517691204746, C3, from C4, 'CREATE TABLE C4 (emp_no INT, salary INT, from_date NUM, to_date NUM)'; ThreadID 15,
METRIC: BEGIN INPUT ROWS INSERTION at time, 1517691204745, C3-3, from C4-3, 'CREATE TABLE C4 (emp_no INT, salary INT, from_date NUM, to_date NUM)'; ThreadID 15,
METRIC: BEGIN INPUT ROWS INSERTION at time, 1517691204759, C3-9, from C4-9, 'CREATE TABLE C4 (emp_no INT, salary INT, from_date NUM, to_date NUM)'; ThreadID 15,
METRIC: BEGIN INPUT ROWS INSERTION at time, 1517691204762, C3-4, from C4-4, 'CREATE TABLE C4 (emp_no INT, salary INT, from_date NUM, to_date NUM)'; ThreadID 15,
METRIC: BEGIN INPUT ROWS INSERTION at time, 1517691204762, C3-2, from C4-2, 'CREATE TABLE C4 (emp_no INT, salary INT, from_date NUM, to_date NUM)'; ThreadID 15,
METRIC: BEGIN INPUT ROWS INSERTION at time, 1517691204765, C3-4, from C5, 'CREATE TABLE C5 (emp_no INT(11), birth_date DATE, first_name VARCHAR(14), last_name VARCHAR(16), gender TEXT, hire_date DATE)'; ThreadID 16,
METRIC: BEGIN INPUT ROWS INSERTION at time, 1517691204764, C3-2, from C5, 'CREATE TABLE C5 (emp_no INT(11), birth_date DATE, first_name VARCHAR(14), last_name VARCHAR(16), gender TEXT, hire_date DATE)'; ThreadID 16,
METRIC: BEGIN INPUT ROWS INSERTION at time, 1517691204766, C3-12, from C4-12, 'CREATE TABLE C4 (emp_no INT, salary INT, from_date NUM, to_date NUM)'; ThreadID 16,
METRIC: BEGIN INPUT ROWS INSERTION at time, 1517691204769, C3-8, from C4-8, 'CREATE TABLE C4 (emp_no INT, salary INT, from_date NUM, to_date NUM)'; ThreadID 15,
METRIC: BEGIN INPUT ROWS INSERTION at time, 1517691204771, C3-8, from C5, 'CREATE TABLE C5 (emp_no INT(11), birth_date DATE, first_name VARCHAR(14), last_name VARCHAR(16), gender TEXT, hire_date DATE)'; ThreadID 16,
METRIC: BEGIN INPUT ROWS INSERTION at time, 1517691204771, C3-11, from C4-11, 'CREATE TABLE C4 (emp_no INT, salary INT, from_date NUM, to_date NUM)'; ThreadID 16,
METRIC: BEGIN INPUT ROWS INSERTION at time, 1517691204777, C3-10, from C4-10, 'CREATE TABLE C4 (emp_no INT, salary INT, from_date NUM, to_date NUM)'; ThreadID 15,
METRIC: BEGIN INPUT ROWS INSERTION at time, 1517691204772, C3-7, from C5, 'CREATE TABLE C5 (emp_no INT(11), birth_date DATE, first_name VARCHAR(14), last_name VARCHAR(16), gender TEXT, hire_date DATE)'; ThreadID 15,
METRIC: BEGIN INPUT ROWS INSERTION at time, 1517691204771, C3-13, from C4-13, 'CREATE TABLE C4 (emp_no INT, salary INT, from_date NUM, to_date NUM)'; ThreadID 16,
METRIC: BEGIN INPUT ROWS INSERTION at time, 1517691204774, C3-5, from C5, 'CREATE TABLE C5 (emp_no INT(11), birth_date DATE, first_name VARCHAR(14), last_name VARCHAR(16), gender TEXT, hire_date DATE)'; ThreadID 15,
METRIC: BEGIN INPUT ROWS INSERTION at time, 1517691204777, C3-6, from C5, 'CREATE TABLE C5 (emp_no INT(11), birth_date DATE, first_name VARCHAR(14), last_name VARCHAR(16), gender TEXT, hire_date DATE)'; ThreadID 15,
METRIC: BEGIN INPUT ROWS INSERTION at time, 1517691204787, C3-20, from C4-20, 'CREATE TABLE C4 (emp_no INT, salary INT, from_date NUM, to_date NUM)'; ThreadID 15,
METRIC: BEGIN INPUT ROWS INSERTION at time, 1517691204792, C3-18, from C4-18, 'CREATE TABLE C4 (emp_no INT, salary INT, from_date NUM, to_date NUM)'; ThreadID 15,
METRIC: BEGIN INPUT ROWS INSERTION at time, 1517691204793, C3-10, from C5, 'CREATE TABLE C5 (emp_no INT(11), birth_date DATE, first_name VARCHAR(14), last_name VARCHAR(16), gender TEXT, hire_date DATE)'; ThreadID 16,
METRIC: BEGIN INPUT ROWS INSERTION at time, 1517691204795, C3-15, from C4-15, 'CREATE TABLE C4 (emp_no INT, salary INT, from_date NUM, to_date NUM)'; ThreadID 15,
METRIC: BEGIN INPUT ROWS INSERTION at time, 1517691204798, C3-23, from C4-23, 'CREATE TABLE C4 (emp_no INT, salary INT, from_date NUM, to_date NUM)'; ThreadID 15,
METRIC: BEGIN INPUT ROWS INSERTION at time, 1517691204801, C3-17, from C4-17, 'CREATE TABLE C4 (emp_no INT, salary INT, from_date NUM, to_date NUM)'; ThreadID 15,
METRIC: BEGIN INPUT ROWS INSERTION at time, 1517691204801, C3-9, from C5, 'CREATE TABLE C5 (emp_no INT(11), birth_date DATE, first_name VARCHAR(14), last_name VARCHAR(16), gender TEXT, hire_date DATE)'; ThreadID 16,
METRIC: BEGIN INPUT ROWS INSERTION at time, 1517691204801, C3-14, from C4-14, 'CREATE TABLE C4 (emp_no INT, salary INT, from_date NUM, to_date NUM)'; ThreadID 15,
METRIC: BEGIN INPUT ROWS INSERTION at time, 1517691204800, C3-21, from C4-21, 'CREATE TABLE C4 (emp_no INT, salary INT, from_date NUM, to_date NUM)'; ThreadID 15,
METRIC: BEGIN INPUT ROWS INSERTION at time, 1517691204808, C3-24, from C4-24, 'CREATE TABLE C4 (emp_no INT, salary INT, from_date NUM, to_date NUM)'; ThreadID 15,
METRIC: BEGIN INPUT ROWS INSERTION at time, 1517691204817, C3-26, from C4-26, 'CREATE TABLE C4 (emp_no INT, salary INT, from_date NUM, to_date NUM)'; ThreadID 15,
METRIC: BEGIN INPUT ROWS INSERTION at time, 1517691204819, C3-11, from C5, 'CREATE TABLE C5 (emp_no INT(11), birth_date DATE, first_name VARCHAR(14), last_name VARCHAR(16), gender TEXT, hire_date DATE)'; ThreadID 15,
METRIC: BEGIN INPUT ROWS INSERTION at time, 1517691204822, C3-12, from C5, 'CREATE TABLE C5 (emp_no INT(11), birth_date DATE, first_name VARCHAR(14), last_name VARCHAR(16), gender TEXT, hire_date DATE)'; ThreadID 15,
METRIC: BEGIN INPUT ROWS INSERTION at time, 1517691204823, C3-35, from C4-35, 'CREATE TABLE C4 (emp_no INT, salary INT, from_date NUM, to_date NUM)'; ThreadID 15,
METRIC: BEGIN INPUT ROWS INSERTION at time, 1517691204825, C3-36, from C4-36, 'CREATE TABLE C4 (emp_no INT, salary INT, from_date NUM, to_date NUM)'; ThreadID 16,
METRIC: BEGIN INPUT ROWS INSERTION at time, 1517691204827, C3-31, from C4-31, 'CREATE TABLE C4 (emp_no INT, salary INT, from_date NUM, to_date NUM)'; ThreadID 15,
METRIC: BEGIN INPUT ROWS INSERTION at time, 1517691204828, C3-30, from C4-30, 'CREATE TABLE C4 (emp_no INT, salary INT, from_date NUM, to_date NUM)'; ThreadID 15,
METRIC: BEGIN INPUT ROWS INSERTION at time, 1517691204829, C3-37, from C4-37, 'CREATE TABLE C4 (emp_no INT, salary INT, from_date NUM, to_date NUM)'; ThreadID 16,
METRIC: BEGIN INPUT ROWS INSERTION at time, 1517691204839, C3-33, from C4-33, 'CREATE TABLE C4 (emp_no INT, salary INT, from_date NUM, to_date NUM)'; ThreadID 15,
METRIC: BEGIN INPUT ROWS INSERTION at time, 1517691204841, C3-26, from C5, 'CREATE TABLE C5 (emp_no INT(11), birth_date DATE, first_name VARCHAR(14), last_name VARCHAR(16), gender TEXT, hire_date DATE)'; ThreadID 16,
METRIC: BEGIN INPUT ROWS INSERTION at time, 1517691204844, C3-5, from C4-5, 'CREATE TABLE C4 (emp_no INT, salary INT, from_date NUM, to_date NUM)'; ThreadID 16,
METRIC: BEGIN INPUT ROWS INSERTION at time, 1517691204846, C3-24, from C5, 'CREATE TABLE C5 (emp_no INT(11), birth_date DATE, first_name VARCHAR(14), last_name VARCHAR(16), gender TEXT, hire_date DATE)'; ThreadID 16,
METRIC: BEGIN INPUT ROWS INSERTION at time, 1517691204850, C3-44, from C4-44, 'CREATE TABLE C4 (emp_no INT, salary INT, from_date NUM, to_date NUM)'; ThreadID 16,
METRIC: BEGIN INPUT ROWS INSERTION at time, 1517691204851, C3-32, from C4-32, 'CREATE TABLE C4 (emp_no INT, salary INT, from_date NUM, to_date NUM)'; ThreadID 15,
METRIC: BEGIN INPUT ROWS INSERTION at time, 1517691204854, C3-48, from C4-48, 'CREATE TABLE C4 (emp_no INT, salary INT, from_date NUM, to_date NUM)'; ThreadID 16,
METRIC: BEGIN INPUT ROWS INSERTION at time, 1517691204857, C3-47, from C4-47, 'CREATE TABLE C4 (emp_no INT, salary INT, from_date NUM, to_date NUM)'; ThreadID 16,
METRIC: BEGIN INPUT ROWS INSERTION at time, 1517691204857, C3-28, from C4-28, 'CREATE TABLE C4 (emp_no INT, salary INT, from_date NUM, to_date NUM)'; ThreadID 15,
METRIC: BEGIN INPUT ROWS INSERTION at time, 1517691204857, C3-13, from C5, 'CREATE TABLE C5 (emp_no INT(11), birth_date DATE, first_name VARCHAR(14), last_name VARCHAR(16), gender TEXT, hire_date DATE)'; ThreadID 15,
METRIC: BEGIN INPUT ROWS INSERTION at time, 1517691204860, C3-45, from C4-45, 'CREATE TABLE C4 (emp_no INT, salary INT, from_date NUM, to_date NUM)'; ThreadID 16,
METRIC: BEGIN INPUT ROWS INSERTION at time, 1517691204867, C3-21, from C5, 'CREATE TABLE C5 (emp_no INT(11), birth_date DATE, first_name VARCHAR(14), last_name VARCHAR(16), gender TEXT, hire_date DATE)'; ThreadID 16,
METRIC: BEGIN INPUT ROWS INSERTION at time, 1517691204871, C3-43, from C4-43, 'CREATE TABLE C4 (emp_no INT, salary INT, from_date NUM, to_date NUM)'; ThreadID 16,
METRIC: BEGIN INPUT ROWS INSERTION at time, 1517691204865, C3-46, from C4-46, 'CREATE TABLE C4 (emp_no INT, salary INT, from_date NUM, to_date NUM)'; ThreadID 16,
METRIC: BEGIN INPUT ROWS INSERTION at time, 1517691204872, C3-42, from C4-42, 'CREATE TABLE C4 (emp_no INT, salary INT, from_date NUM, to_date NUM)'; ThreadID 16,
METRIC: BEGIN INPUT ROWS INSERTION at time, 1517691204873, C3-38, from C4-38, 'CREATE TABLE C4 (emp_no INT, salary INT, from_date NUM, to_date NUM)'; ThreadID 16,
METRIC: BEGIN INPUT ROWS INSERTION at time, 1517691204910, C3-22, from C5, 'CREATE TABLE C5 (emp_no INT(11), birth_date DATE, first_name VARCHAR(14), last_name VARCHAR(16), gender TEXT, hire_date DATE)'; ThreadID 15,
METRIC: BEGIN INPUT ROWS INSERTION at time, 1517691204930, C3-20, from C5, 'CREATE TABLE C5 (emp_no INT(11), birth_date DATE, first_name VARCHAR(14), last_name VARCHAR(16), gender TEXT, hire_date DATE)'; ThreadID 16,
METRIC: BEGIN INPUT ROWS INSERTION at time, 1517691204935, C3-34, from C4-34, 'CREATE TABLE C4 (emp_no INT, salary INT, from_date NUM, to_date NUM)'; ThreadID 16,
METRIC: BEGIN INPUT ROWS INSERTION at time, 1517691204937, C3-7, from C4-7, 'CREATE TABLE C4 (emp_no INT, salary INT, from_date NUM, to_date NUM)'; ThreadID 16,
METRIC: BEGIN INPUT ROWS INSERTION at time, 1517691204961, C3-25, from C4-25, 'CREATE TABLE C4 (emp_no INT, salary INT, from_date NUM, to_date NUM)'; ThreadID 16,
METRIC: BEGIN INPUT ROWS INSERTION at time, 1517691204965, C3, from C5, 'CREATE TABLE C5 (emp_no INT(11), birth_date DATE, first_name VARCHAR(14), last_name VARCHAR(16), gender TEXT, hire_date DATE)'; ThreadID 16,
METRIC: BEGIN INPUT ROWS INSERTION at time, 1517691204969, C3-17, from C5, 'CREATE TABLE C5 (emp_no INT(11), birth_date DATE, first_name VARCHAR(14), last_name VARCHAR(16), gender TEXT, hire_date DATE)'; ThreadID 16,
METRIC: BEGIN INPUT ROWS INSERTION at time, 1517691204971, C3-16, from C4-16, 'CREATE TABLE C4 (emp_no INT, salary INT, from_date NUM, to_date NUM)'; ThreadID 15,
METRIC: BEGIN INPUT ROWS INSERTION at time, 1517691204995, C3-15, from C5, 'CREATE TABLE C5 (emp_no INT(11), birth_date DATE, first_name VARCHAR(14), last_name VARCHAR(16), gender TEXT, hire_date DATE)'; ThreadID 16,
METRIC: BEGIN INPUT ROWS INSERTION at time, 1517691204995, C3-14, from C5, 'CREATE TABLE C5 (emp_no INT(11), birth_date DATE, first_name VARCHAR(14), last_name VARCHAR(16), gender TEXT, hire_date DATE)'; ThreadID 16,
METRIC: BEGIN INPUT ROWS INSERTION at time, 1517691204996, C3-18, from C5, 'CREATE TABLE C5 (emp_no INT(11), birth_date DATE, first_name VARCHAR(14), last_name VARCHAR(16), gender TEXT, hire_date DATE)'; ThreadID 16,
METRIC: BEGIN INPUT ROWS INSERTION at time, 1517691204997, C3-23, from C5, 'CREATE TABLE C5 (emp_no INT(11), birth_date DATE, first_name VARCHAR(14), last_name VARCHAR(16), gender TEXT, hire_date DATE)'; ThreadID 16,
METRIC: BEGIN INPUT ROWS INSERTION at time, 1517691205000, C3-25, from C5, 'CREATE TABLE C5 (emp_no INT(11), birth_date DATE, first_name VARCHAR(14), last_name VARCHAR(16), gender TEXT, hire_date DATE)'; ThreadID 15,
METRIC: BEGIN INPUT ROWS INSERTION at time, 1517691205002, C3-28, from C5, 'CREATE TABLE C5 (emp_no INT(11), birth_date DATE, first_name VARCHAR(14), last_name VARCHAR(16), gender TEXT, hire_date DATE)'; ThreadID 16,
METRIC: BEGIN INPUT ROWS INSERTION at time, 1517691205002, C3-19, from C5, 'CREATE TABLE C5 (emp_no INT(11), birth_date DATE, first_name VARCHAR(14), last_name VARCHAR(16), gender TEXT, hire_date DATE)'; ThreadID 15,
METRIC: BEGIN INPUT ROWS INSERTION at time, 1517691205009, C3-27, from C5, 'CREATE TABLE C5 (emp_no INT(11), birth_date DATE, first_name VARCHAR(14), last_name VARCHAR(16), gender TEXT, hire_date DATE)'; ThreadID 15,
METRIC: BEGIN INPUT ROWS INSERTION at time, 1517691205019, C3-30, from C5, 'CREATE TABLE C5 (emp_no INT(11), birth_date DATE, first_name VARCHAR(14), last_name VARCHAR(16), gender TEXT, hire_date DATE)'; ThreadID 16,
METRIC: BEGIN INPUT ROWS INSERTION at time, 1517691204998, C3-16, from C5, 'CREATE TABLE C5 (emp_no INT(11), birth_date DATE, first_name VARCHAR(14), last_name VARCHAR(16), gender TEXT, hire_date DATE)'; ThreadID 16,
METRIC: BEGIN INPUT ROWS INSERTION at time, 1517691205029, C3-39, from C4-39, 'CREATE TABLE C4 (emp_no INT, salary INT, from_date NUM, to_date NUM)'; ThreadID 16,
METRIC: BEGIN INPUT ROWS INSERTION at time, 1517691205037, C3-32, from C5, 'CREATE TABLE C5 (emp_no INT(11), birth_date DATE, first_name VARCHAR(14), last_name VARCHAR(16), gender TEXT, hire_date DATE)'; ThreadID 16,
METRIC: BEGIN INPUT ROWS INSERTION at time, 1517691205042, C3-40, from C4-40, 'CREATE TABLE C4 (emp_no INT, salary INT, from_date NUM, to_date NUM)'; ThreadID 16,
METRIC: BEGIN INPUT ROWS INSERTION at time, 1517691205094, C3-31, from C5, 'CREATE TABLE C5 (emp_no INT(11), birth_date DATE, first_name VARCHAR(14), last_name VARCHAR(16), gender TEXT, hire_date DATE)'; ThreadID 16,
METRIC: BEGIN INPUT ROWS INSERTION at time, 1517691205107, C3-29, from C4-29, 'CREATE TABLE C4 (emp_no INT, salary INT, from_date NUM, to_date NUM)'; ThreadID 16,
METRIC: BEGIN INPUT ROWS INSERTION at time, 1517691205114, C3-22, from C4-22, 'CREATE TABLE C4 (emp_no INT, salary INT, from_date NUM, to_date NUM)'; ThreadID 16,
METRIC: BEGIN INPUT ROWS INSERTION at time, 1517691205115, C3-27, from C4-27, 'CREATE TABLE C4 (emp_no INT, salary INT, from_date NUM, to_date NUM)'; ThreadID 16,
METRIC: BEGIN INPUT ROWS INSERTION at time, 1517691205117, C3-39, from C5, 'CREATE TABLE C5 (emp_no INT(11), birth_date DATE, first_name VARCHAR(14), last_name VARCHAR(16), gender TEXT, hire_date DATE)'; ThreadID 15,
METRIC: BEGIN INPUT ROWS INSERTION at time, 1517691205109, C3-35, from C5, 'CREATE TABLE C5 (emp_no INT(11), birth_date DATE, first_name VARCHAR(14), last_name VARCHAR(16), gender TEXT, hire_date DATE)'; ThreadID 16,
METRIC: BEGIN INPUT ROWS INSERTION at time, 1517691205134, C3-41, from C4-41, 'CREATE TABLE C4 (emp_no INT, salary INT, from_date NUM, to_date NUM)'; ThreadID 16,
METRIC: BEGIN INPUT ROWS INSERTION at time, 1517691205137, C3-34, from C5, 'CREATE TABLE C5 (emp_no INT(11), birth_date DATE, first_name VARCHAR(14), last_name VARCHAR(16), gender TEXT, hire_date DATE)'; ThreadID 15,
METRIC: BEGIN INPUT ROWS INSERTION at time, 1517691205139, C3-33, from C5, 'CREATE TABLE C5 (emp_no INT(11), birth_date DATE, first_name VARCHAR(14), last_name VARCHAR(16), gender TEXT, hire_date DATE)'; ThreadID 16,
METRIC: BEGIN INPUT ROWS INSERTION at time, 1517691205141, C3-6, from C4-6, 'CREATE TABLE C4 (emp_no INT, salary INT, from_date NUM, to_date NUM)'; ThreadID 16,
METRIC: BEGIN INPUT ROWS INSERTION at time, 1517691205149, C3-19, from C4-19, 'CREATE TABLE C4 (emp_no INT, salary INT, from_date NUM, to_date NUM)'; ThreadID 16,
METRIC: BEGIN INPUT ROWS INSERTION at time, 1517691205152, C3-37, from C5, 'CREATE TABLE C5 (emp_no INT(11), birth_date DATE, first_name VARCHAR(14), last_name VARCHAR(16), gender TEXT, hire_date DATE)'; ThreadID 15,
METRIC: BEGIN INPUT ROWS INSERTION at time, 1517691205153, C3-36, from C5, 'CREATE TABLE C5 (emp_no INT(11), birth_date DATE, first_name VARCHAR(14), last_name VARCHAR(16), gender TEXT, hire_date DATE)'; ThreadID 15,
METRIC: BEGIN INPUT ROWS INSERTION at time, 1517691205155, C3-40, from C5, 'CREATE TABLE C5 (emp_no INT(11), birth_date DATE, first_name VARCHAR(14), last_name VARCHAR(16), gender TEXT, hire_date DATE)'; ThreadID 15,
METRIC: BEGIN INPUT ROWS INSERTION at time, 1517691205178, C3-41, from C5, 'CREATE TABLE C5 (emp_no INT(11), birth_date DATE, first_name VARCHAR(14), last_name VARCHAR(16), gender TEXT, hire_date DATE)'; ThreadID 15,
METRIC: BEGIN INPUT ROWS INSERTION at time, 1517691205183, C3-38, from C5, 'CREATE TABLE C5 (emp_no INT(11), birth_date DATE, first_name VARCHAR(14), last_name VARCHAR(16), gender TEXT, hire_date DATE)'; ThreadID 15,
METRIC: BEGIN INPUT ROWS INSERTION at time, 1517691205183, C3-44, from C5, 'CREATE TABLE C5 (emp_no INT(11), birth_date DATE, first_name VARCHAR(14), last_name VARCHAR(16), gender TEXT, hire_date DATE)'; ThreadID 15,
METRIC: BEGIN INPUT ROWS INSERTION at time, 1517691205179, C3-42, from C5, 'CREATE TABLE C5 (emp_no INT(11), birth_date DATE, first_name VARCHAR(14), last_name VARCHAR(16), gender TEXT, hire_date DATE)'; ThreadID 15,
METRIC: BEGIN INPUT ROWS INSERTION at time, 1517691205187, C3-43, from C5, 'CREATE TABLE C5 (emp_no INT(11), birth_date DATE, first_name VARCHAR(14), last_name VARCHAR(16), gender TEXT, hire_date DATE)'; ThreadID 15,
METRIC: BEGIN INPUT ROWS INSERTION at time, 1517691205190, C3-45, from C5, 'CREATE TABLE C5 (emp_no INT(11), birth_date DATE, first_name VARCHAR(14), last_name VARCHAR(16), gender TEXT, hire_date DATE)'; ThreadID 15,
METRIC: BEGIN INPUT ROWS INSERTION at time, 1517691205193, C3-47, from C5, 'CREATE TABLE C5 (emp_no INT(11), birth_date DATE, first_name VARCHAR(14), last_name VARCHAR(16), gender TEXT, hire_date DATE)'; ThreadID 15,
METRIC: BEGIN INPUT ROWS INSERTION at time, 1517691205193, C3-46, from C5, 'CREATE TABLE C5 (emp_no INT(11), birth_date DATE, first_name VARCHAR(14), last_name VARCHAR(16), gender TEXT, hire_date DATE)'; ThreadID 15,
METRIC: BEGIN INPUT ROWS INSERTION at time, 1517691205200, C3-29, from C5, 'CREATE TABLE C5 (emp_no INT(11), birth_date DATE, first_name VARCHAR(14), last_name VARCHAR(16), gender TEXT, hire_date DATE)'; ThreadID 15,
METRIC: BEGIN INPUT ROWS INSERTION at time, 1517691205201, C3-48, from C5, 'CREATE TABLE C5 (emp_no INT(11), birth_date DATE, first_name VARCHAR(14), last_name VARCHAR(16), gender TEXT, hire_date DATE)'; ThreadID 15,
METRIC: BEGIN INPUT ROWS INSERTION at time, 1517691205198, C3-3, from C5, 'CREATE TABLE C5 (emp_no INT(11), birth_date DATE, first_name VARCHAR(14), last_name VARCHAR(16), gender TEXT, hire_date DATE)'; ThreadID 16,
METRIC: OutputCachedRowSetRunnable, FINISH XFER OUTPUT 59250 CACHED ROWS  at time, 1517691206355, C4-12, ===> C3-12,
METRIC: OutputCachedRowSetRunnable, FINISH XFER OUTPUT 59250 CACHED ROWS  at time, 1517691206410, C4-11, ===> C3-11,
METRIC: OutputCachedRowSetRunnable, FINISH XFER OUTPUT 59250 CACHED ROWS  at time, 1517691206446, C4-5, ===> C3-5,
METRIC: OutputCachedRowSetRunnable, FINISH XFER OUTPUT 59250 CACHED ROWS  at time, 1517691206452, C4-8, ===> C3-8,
METRIC: OutputCachedRowSetRunnable, FINISH XFER OUTPUT 59250 CACHED ROWS  at time, 1517691206475, C4-20, ===> C3-20,
METRIC: OutputCachedRowSetRunnable, FINISH XFER OUTPUT 59250 CACHED ROWS  at time, 1517691206494, C4-31, ===> C3-31,
METRIC: OutputCachedRowSetRunnable, FINISH XFER OUTPUT 59250 CACHED ROWS  at time, 1517691206499, C4-42, ===> C3-42,
METRIC: OutputCachedRowSetRunnable, FINISH XFER OUTPUT 59250 CACHED ROWS  at time, 1517691206507, C4-7, ===> C3-7,
METRIC: OutputCachedRowSetRunnable, FINISH XFER OUTPUT 59250 CACHED ROWS  at time, 1517691206552, C4-17, ===> C3-17,
METRIC: OutputCachedRowSetRunnable, FINISH XFER OUTPUT 59250 CACHED ROWS  at time, 1517691206606, C4-45, ===> C3-45,
METRIC: OutputCachedRowSetRunnable, FINISH XFER OUTPUT 59250 CACHED ROWS  at time, 1517691206616, C4-43, ===> C3-43,
METRIC: OutputCachedRowSetRunnable, FINISH XFER OUTPUT 59250 CACHED ROWS  at time, 1517691206640, C4-3, ===> C3-3,
METRIC: OutputCachedRowSetRunnable, FINISH XFER OUTPUT 59250 CACHED ROWS  at time, 1517691206652, C4-47, ===> C3-47,
METRIC: OutputCachedRowSetRunnable, FINISH XFER OUTPUT 59250 CACHED ROWS  at time, 1517691206653, C4-44, ===> C3-44,
METRIC: OutputCachedRowSetRunnable, FINISH XFER OUTPUT 59250 CACHED ROWS  at time, 1517691206655, C4-15, ===> C3-15,
METRIC: OutputCachedRowSetRunnable, FINISH XFER OUTPUT 59250 CACHED ROWS  at time, 1517691206681, C4-37, ===> C3-37,
METRIC: OutputCachedRowSetRunnable, FINISH XFER OUTPUT 59250 CACHED ROWS  at time, 1517691206713, C4-4, ===> C3-4,
METRIC: OutputCachedRowSetRunnable, FINISH XFER OUTPUT 59250 CACHED ROWS  at time, 1517691206718, C4-41, ===> C3-41,
METRIC: OutputCachedRowSetRunnable, FINISH XFER OUTPUT 59250 CACHED ROWS  at time, 1517691206734, C4-30, ===> C3-30,
METRIC: OutputCachedRowSetRunnable, FINISH XFER OUTPUT 59250 CACHED ROWS  at time, 1517691206783, C4-25, ===> C3-25,
METRIC: OutputCachedRowSetRunnable, FINISH XFER OUTPUT 59250 CACHED ROWS  at time, 1517691206802, C4-48, ===> C3-48,
METRIC: OutputCachedRowSetRunnable, FINISH XFER OUTPUT 59250 CACHED ROWS  at time, 1517691206819, C4-34, ===> C3-34,
METRIC: OutputCachedRowSetRunnable, FINISH XFER OUTPUT 59250 CACHED ROWS  at time, 1517691206834, C4-2, ===> C3-2,
METRIC: OutputCachedRowSetRunnable, FINISH XFER OUTPUT 59250 CACHED ROWS  at time, 1517691206986, C4-40, ===> C3-40,
METRIC: OutputCachedRowSetRunnable, FINISH XFER OUTPUT 59250 CACHED ROWS  at time, 1517691207005, C4-28, ===> C3-28,
METRIC: OutputCachedRowSetRunnable, FINISH XFER OUTPUT 59250 CACHED ROWS  at time, 1517691207029, C4-18, ===> C3-18,
METRIC: OutputCachedRowSetRunnable, FINISH XFER OUTPUT 59250 CACHED ROWS  at time, 1517691207041, C4-13, ===> C3-13,
METRIC: OutputCachedRowSetRunnable, FINISH XFER OUTPUT 59250 CACHED ROWS  at time, 1517691207049, C4-9, ===> C3-9,
METRIC: OutputCachedRowSetRunnable, FINISH XFER OUTPUT 59250 CACHED ROWS  at time, 1517691207098, C4-23, ===> C3-23,
METRIC: OutputCachedRowSetRunnable, FINISH XFER OUTPUT 59250 CACHED ROWS  at time, 1517691207101, C4-10, ===> C3-10,
METRIC: OutputCachedRowSetRunnable, FINISH XFER OUTPUT 59250 CACHED ROWS  at time, 1517691207123, C4-6, ===> C3-6,
METRIC: OutputCachedRowSetRunnable, FINISH XFER OUTPUT 59250 CACHED ROWS  at time, 1517691207158, C4-36, ===> C3-36,
METRIC: OutputCachedRowSetRunnable, FINISH XFER OUTPUT 59250 CACHED ROWS  at time, 1517691207182, C4-33, ===> C3-33,
METRIC: OutputCachedRowSetRunnable, FINISH XFER OUTPUT 59250 CACHED ROWS  at time, 1517691207193, C4-39, ===> C3-39,
METRIC: OutputCachedRowSetRunnable, FINISH XFER OUTPUT 59250 CACHED ROWS  at time, 1517691207210, C4-35, ===> C3-35,
METRIC: OutputCachedRowSetRunnable, FINISH XFER OUTPUT 59250 CACHED ROWS  at time, 1517691207224, C4-16, ===> C3-16,
METRIC: OutputCachedRowSetRunnable, FINISH XFER OUTPUT 59250 CACHED ROWS  at time, 1517691207233, C4-22, ===> C3-22,
METRIC: OutputCachedRowSetRunnable, FINISH XFER OUTPUT 59250 CACHED ROWS  at time, 1517691207274, C4-29, ===> C3-29,
METRIC: OutputCachedRowSetRunnable, FINISH XFER OUTPUT 59250 CACHED ROWS  at time, 1517691207279, C4-21, ===> C3-21,
METRIC: OutputCachedRowSetRunnable, FINISH XFER OUTPUT 59250 CACHED ROWS  at time, 1517691207280, C4-32, ===> C3-32,
METRIC: OutputCachedRowSetRunnable, FINISH XFER OUTPUT 59250 CACHED ROWS  at time, 1517691207283, C4-14, ===> C3-14,
METRIC: OutputCachedRowSetRunnable, FINISH XFER OUTPUT 59250 CACHED ROWS  at time, 1517691207286, C4-38, ===> C3-38,
METRIC: OutputCachedRowSetRunnable, FINISH XFER OUTPUT 59250 CACHED ROWS  at time, 1517691207371, C4-27, ===> C3-27,
METRIC: OutputCachedRowSetRunnable, FINISH XFER OUTPUT 59250 CACHED ROWS  at time, 1517691207405, C4, ===> C3,
METRIC: OutputCachedRowSetRunnable, FINISH XFER OUTPUT 59250 CACHED ROWS  at time, 1517691207432, C4-19, ===> C3-19,
METRIC: OutputCachedRowSetRunnable, FINISH XFER OUTPUT 59250 CACHED ROWS  at time, 1517691207564, C4-24, ===> C3-24,
METRIC: OutputCachedRowSetRunnable, FINISH XFER OUTPUT 59250 CACHED ROWS  at time, 1517691207588, C4-46, ===> C3-46,
METRIC: OutputCachedRowSetRunnable, FINISH XFER OUTPUT 59250 CACHED ROWS  at time, 1517691207737, C4-26, ===> C3-26,
METRIC: OutputCachedRowSetRunnable, FINISH XFER OUTPUT 39999 CACHED ROWS  at time, 1517691208126, C5, ===> C3,
METRIC: OutputCachedRowSetRunnable, FINISH XFER OUTPUT 39999 CACHED ROWS  at time, 1517691208155, C5, ===> C3-23,
METRIC: OutputCachedRowSetRunnable, FINISH XFER OUTPUT 39999 CACHED ROWS  at time, 1517691208412, C5, ===> C3-30,
METRIC: OutputCachedRowSetRunnable, FINISH XFER OUTPUT 39999 CACHED ROWS  at time, 1517691208429, C5, ===> C3-36,
METRIC: OutputCachedRowSetRunnable, FINISH XFER OUTPUT 39999 CACHED ROWS  at time, 1517691208477, C5, ===> C3-2,
METRIC: OutputCachedRowSetRunnable, FINISH XFER OUTPUT 39999 CACHED ROWS  at time, 1517691208481, C5, ===> C3-27,
METRIC: OutputCachedRowSetRunnable, FINISH XFER OUTPUT 39999 CACHED ROWS  at time, 1517691208506, C5, ===> C3-24,
METRIC: OutputCachedRowSetRunnable, FINISH XFER OUTPUT 39999 CACHED ROWS  at time, 1517691208489, C5, ===> C3-25,
METRIC: OutputCachedRowSetRunnable, FINISH XFER OUTPUT 39999 CACHED ROWS  at time, 1517691208484, C5, ===> C3-5,
METRIC: OutputCachedRowSetRunnable, FINISH XFER OUTPUT 39999 CACHED ROWS  at time, 1517691208484, C5, ===> C3-13,
METRIC: OutputCachedRowSetRunnable, FINISH XFER OUTPUT 39999 CACHED ROWS  at time, 1517691208510, C5, ===> C3-7,
METRIC: OutputCachedRowSetRunnable, FINISH XFER OUTPUT 39999 CACHED ROWS  at time, 1517691208555, C5, ===> C3-47,
METRIC: OutputCachedRowSetRunnable, FINISH XFER OUTPUT 39999 CACHED ROWS  at time, 1517691208595, C5, ===> C3-38,
METRIC: OutputCachedRowSetRunnable, FINISH XFER OUTPUT 39999 CACHED ROWS  at time, 1517691208574, C5, ===> C3-29,
METRIC: OutputCachedRowSetRunnable, FINISH XFER OUTPUT 39999 CACHED ROWS  at time, 1517691208569, C5, ===> C3-19,
METRIC: OutputCachedRowSetRunnable, FINISH XFER OUTPUT 39999 CACHED ROWS  at time, 1517691208616, C5, ===> C3-20,
METRIC: OutputCachedRowSetRunnable, FINISH XFER OUTPUT 39999 CACHED ROWS  at time, 1517691208621, C5, ===> C3-10,
METRIC: OutputCachedRowSetRunnable, FINISH XFER OUTPUT 39999 CACHED ROWS  at time, 1517691208657, C5, ===> C3-16,
METRIC: OutputCachedRowSetRunnable, FINISH XFER OUTPUT 39999 CACHED ROWS  at time, 1517691208657, C5, ===> C3-14,
METRIC: OutputCachedRowSetRunnable, FINISH XFER OUTPUT 39999 CACHED ROWS  at time, 1517691208654, C5, ===> C3-21,
METRIC: OutputCachedRowSetRunnable, FINISH XFER OUTPUT 39999 CACHED ROWS  at time, 1517691208653, C5, ===> C3-33,
METRIC: OutputCachedRowSetRunnable, FINISH XFER OUTPUT 39999 CACHED ROWS  at time, 1517691208651, C5, ===> C3-32,
METRIC: OutputCachedRowSetRunnable, FINISH XFER OUTPUT 39999 CACHED ROWS  at time, 1517691208694, C5, ===> C3-39,
METRIC: OutputCachedRowSetRunnable, FINISH XFER OUTPUT 39999 CACHED ROWS  at time, 1517691208651, C5, ===> C3-4,
METRIC: OutputCachedRowSetRunnable, FINISH XFER OUTPUT 39999 CACHED ROWS  at time, 1517691208649, C5, ===> C3-41,
METRIC: OutputCachedRowSetRunnable, FINISH XFER OUTPUT 39999 CACHED ROWS  at time, 1517691208646, C5, ===> C3-31,
METRIC: OutputCachedRowSetRunnable, FINISH XFER OUTPUT 39999 CACHED ROWS  at time, 1517691208629, C5, ===> C3-11,
METRIC: OutputCachedRowSetRunnable, FINISH XFER OUTPUT 39999 CACHED ROWS  at time, 1517691208629, C5, ===> C3-9,
METRIC: OutputCachedRowSetRunnable, FINISH XFER OUTPUT 39999 CACHED ROWS  at time, 1517691208697, C5, ===> C3-37,
METRIC: OutputCachedRowSetRunnable, FINISH XFER OUTPUT 39999 CACHED ROWS  at time, 1517691208696, C5, ===> C3-12,
METRIC: OutputCachedRowSetRunnable, FINISH XFER OUTPUT 39999 CACHED ROWS  at time, 1517691208692, C5, ===> C3-26,
METRIC: OutputCachedRowSetRunnable, FINISH XFER OUTPUT 39999 CACHED ROWS  at time, 1517691208689, C5, ===> C3-15,
METRIC: OutputCachedRowSetRunnable, FINISH XFER OUTPUT 39999 CACHED ROWS  at time, 1517691208677, C5, ===> C3-40,
METRIC: OutputCachedRowSetRunnable, FINISH XFER OUTPUT 39999 CACHED ROWS  at time, 1517691208677, C5, ===> C3-22,
METRIC: OutputCachedRowSetRunnable, FINISH XFER OUTPUT 39999 CACHED ROWS  at time, 1517691208676, C5, ===> C3-46,
METRIC: OutputCachedRowSetRunnable, FINISH XFER OUTPUT 39999 CACHED ROWS  at time, 1517691208675, C5, ===> C3-3,
METRIC: OutputCachedRowSetRunnable, FINISH XFER OUTPUT 39999 CACHED ROWS  at time, 1517691208669, C5, ===> C3-6,
METRIC: OutputCachedRowSetRunnable, FINISH XFER OUTPUT 39999 CACHED ROWS  at time, 1517691208710, C5, ===> C3-45,
METRIC: OutputCachedRowSetRunnable, FINISH XFER OUTPUT 39999 CACHED ROWS  at time, 1517691208704, C5, ===> C3-42,
METRIC: OutputCachedRowSetRunnable, FINISH XFER OUTPUT 39999 CACHED ROWS  at time, 1517691208703, C5, ===> C3-35,
METRIC: OutputCachedRowSetRunnable, FINISH XFER OUTPUT 39999 CACHED ROWS  at time, 1517691208726, C5, ===> C3-44,
METRIC: OutputCachedRowSetRunnable, FINISH XFER OUTPUT 39999 CACHED ROWS  at time, 1517691208722, C5, ===> C3-43,
METRIC: OutputCachedRowSetRunnable, FINISH XFER OUTPUT 39999 CACHED ROWS  at time, 1517691208753, C5, ===> C3-48,
METRIC: OutputCachedRowSetRunnable, FINISH XFER OUTPUT 39999 CACHED ROWS  at time, 1517691208773, C5, ===> C3-28,
METRIC: OutputCachedRowSetRunnable, FINISH XFER OUTPUT 39999 CACHED ROWS  at time, 1517691208779, C5, ===> C3-8,
METRIC: OutputCachedRowSetRunnable, FINISH XFER OUTPUT 39999 CACHED ROWS  at time, 1517691208787, C5, ===> C3-34,
METRIC: OutputCachedRowSetRunnable, FINISH XFER OUTPUT 39999 CACHED ROWS  at time, 1517691208790, C5, ===> C3-17,
METRIC: OutputCachedRowSetRunnable, FINISH XFER OUTPUT 39999 CACHED ROWS  at time, 1517691208944, C5, ===> C3-18,
METRIC: FINISH INPUT ROWS INSERTION at time, 1517691223942, C3-5, CREATE TABLE C4 (emp_no INT, salary INT, from_date NUM, to_date NUM); ThreadID 16, rows inserted: 59250,
METRIC: FINISH INPUT ROWS INSERTION at time, 1517691224119, C3-20, CREATE TABLE C4 (emp_no INT, salary INT, from_date NUM, to_date NUM); ThreadID 15, rows inserted: 59250,
METRIC: FINISH INPUT ROWS INSERTION at time, 1517691224238, C3-42, CREATE TABLE C4 (emp_no INT, salary INT, from_date NUM, to_date NUM); ThreadID 16, rows inserted: 59250,
METRIC: FINISH INPUT ROWS INSERTION at time, 1517691224389, C3-2, CREATE TABLE C4 (emp_no INT, salary INT, from_date NUM, to_date NUM); ThreadID 15, rows inserted: 59250,
METRIC: FINISH INPUT ROWS INSERTION at time, 1517691224389, C3-25, CREATE TABLE C4 (emp_no INT, salary INT, from_date NUM, to_date NUM); ThreadID 16, rows inserted: 59250,
METRIC: FINISH INPUT ROWS INSERTION at time, 1517691224644, C3-36, CREATE TABLE C4 (emp_no INT, salary INT, from_date NUM, to_date NUM); ThreadID 16, rows inserted: 59250,
METRIC: FINISH INPUT ROWS INSERTION at time, 1517691224644, C3-34, CREATE TABLE C4 (emp_no INT, salary INT, from_date NUM, to_date NUM); ThreadID 16, rows inserted: 59250,
METRIC: FINISH INPUT ROWS INSERTION at time, 1517691224644, C3-16, CREATE TABLE C4 (emp_no INT, salary INT, from_date NUM, to_date NUM); ThreadID 15, rows inserted: 59250,
METRIC: FINISH INPUT ROWS INSERTION at time, 1517691224646, C3-41, CREATE TABLE C4 (emp_no INT, salary INT, from_date NUM, to_date NUM); ThreadID 16, rows inserted: 59250,
METRIC: FINISH INPUT ROWS INSERTION at time, 1517691224759, C3-47, CREATE TABLE C4 (emp_no INT, salary INT, from_date NUM, to_date NUM); ThreadID 16, rows inserted: 59250,
METRIC: FINISH INPUT ROWS INSERTION at time, 1517691224890, C3-27, CREATE TABLE C4 (emp_no INT, salary INT, from_date NUM, to_date NUM); ThreadID 16, rows inserted: 59250,
METRIC: FINISH INPUT ROWS INSERTION at time, 1517691224890, C3-38, CREATE TABLE C4 (emp_no INT, salary INT, from_date NUM, to_date NUM); ThreadID 16, rows inserted: 59250,
METRIC: FINISH INPUT ROWS INSERTION at time, 1517691224979, C3-13, CREATE TABLE C4 (emp_no INT, salary INT, from_date NUM, to_date NUM); ThreadID 16, rows inserted: 59250,
METRIC: FINISH INPUT ROWS INSERTION at time, 1517691224979, C3-4, CREATE TABLE C4 (emp_no INT, salary INT, from_date NUM, to_date NUM); ThreadID 15, rows inserted: 59250,
METRIC: FINISH INPUT ROWS INSERTION at time, 1517691225707, C3-14, CREATE TABLE C4 (emp_no INT, salary INT, from_date NUM, to_date NUM); ThreadID 15, rows inserted: 59250,
METRIC: FINISH INPUT ROWS INSERTION at time, 1517691225892, C3-21, CREATE TABLE C4 (emp_no INT, salary INT, from_date NUM, to_date NUM); ThreadID 15, rows inserted: 59250,
METRIC: FINISH INPUT ROWS INSERTION at time, 1517691225893, C3-22, CREATE TABLE C4 (emp_no INT, salary INT, from_date NUM, to_date NUM); ThreadID 16, rows inserted: 59250,
METRIC: FINISH INPUT ROWS INSERTION at time, 1517691225894, C3, CREATE TABLE C4 (emp_no INT, salary INT, from_date NUM, to_date NUM); ThreadID 15, rows inserted: 59250,
METRIC: FINISH INPUT ROWS INSERTION at time, 1517691225895, C3-18, CREATE TABLE C4 (emp_no INT, salary INT, from_date NUM, to_date NUM); ThreadID 15, rows inserted: 59250,
METRIC: FINISH INPUT ROWS INSERTION at time, 1517691225895, C3-40, CREATE TABLE C4 (emp_no INT, salary INT, from_date NUM, to_date NUM); ThreadID 16, rows inserted: 59250,
METRIC: FINISH INPUT ROWS INSERTION at time, 1517691226037, C3-43, CREATE TABLE C4 (emp_no INT, salary INT, from_date NUM, to_date NUM); ThreadID 16, rows inserted: 59250,
METRIC: FINISH INPUT ROWS INSERTION at time, 1517691226039, C3-12, CREATE TABLE C4 (emp_no INT, salary INT, from_date NUM, to_date NUM); ThreadID 16, rows inserted: 59250,
METRIC: FINISH INPUT ROWS INSERTION at time, 1517691226163, C3-28, CREATE TABLE C4 (emp_no INT, salary INT, from_date NUM, to_date NUM); ThreadID 15, rows inserted: 59250,
METRIC: FINISH INPUT ROWS INSERTION at time, 1517691226164, C3-24, CREATE TABLE C4 (emp_no INT, salary INT, from_date NUM, to_date NUM); ThreadID 15, rows inserted: 59250,
METRIC: FINISH INPUT ROWS INSERTION at time, 1517691226164, C3-46, CREATE TABLE C4 (emp_no INT, salary INT, from_date NUM, to_date NUM); ThreadID 16, rows inserted: 59250,
METRIC: FINISH INPUT ROWS INSERTION at time, 1517691226164, C3-26, CREATE TABLE C4 (emp_no INT, salary INT, from_date NUM, to_date NUM); ThreadID 15, rows inserted: 59250,
METRIC: FINISH INPUT ROWS INSERTION at time, 1517691226242, C3-7, CREATE TABLE C4 (emp_no INT, salary INT, from_date NUM, to_date NUM); ThreadID 16, rows inserted: 59250,
METRIC: FINISH INPUT ROWS INSERTION at time, 1517691226251, C3-11, CREATE TABLE C4 (emp_no INT, salary INT, from_date NUM, to_date NUM); ThreadID 16, rows inserted: 59250,
METRIC: FINISH INPUT ROWS INSERTION at time, 1517691226408, C3-3, CREATE TABLE C4 (emp_no INT, salary INT, from_date NUM, to_date NUM); ThreadID 15, rows inserted: 59250,
METRIC: FINISH INPUT ROWS INSERTION at time, 1517691226527, C3-48, CREATE TABLE C4 (emp_no INT, salary INT, from_date NUM, to_date NUM); ThreadID 16, rows inserted: 59250,
METRIC: FINISH INPUT ROWS INSERTION at time, 1517691226681, C3-37, CREATE TABLE C4 (emp_no INT, salary INT, from_date NUM, to_date NUM); ThreadID 16, rows inserted: 59250,
METRIC: FINISH INPUT ROWS INSERTION at time, 1517691226682, C3-15, CREATE TABLE C4 (emp_no INT, salary INT, from_date NUM, to_date NUM); ThreadID 15, rows inserted: 59250,
METRIC: FINISH INPUT ROWS INSERTION at time, 1517691226942, C3-23, CREATE TABLE C4 (emp_no INT, salary INT, from_date NUM, to_date NUM); ThreadID 15, rows inserted: 59250,
METRIC: FINISH INPUT ROWS INSERTION at time, 1517691226943, C3-35, CREATE TABLE C4 (emp_no INT, salary INT, from_date NUM, to_date NUM); ThreadID 15, rows inserted: 59250,
METRIC: FINISH INPUT ROWS INSERTION at time, 1517691226944, C3-33, CREATE TABLE C4 (emp_no INT, salary INT, from_date NUM, to_date NUM); ThreadID 15, rows inserted: 59250,
METRIC: FINISH INPUT ROWS INSERTION at time, 1517691227071, C3-29, CREATE TABLE C4 (emp_no INT, salary INT, from_date NUM, to_date NUM); ThreadID 16, rows inserted: 59250,
METRIC: FINISH INPUT ROWS INSERTION at time, 1517691227306, C3-8, CREATE TABLE C4 (emp_no INT, salary INT, from_date NUM, to_date NUM); ThreadID 15, rows inserted: 59250,
METRIC: FINISH INPUT ROWS INSERTION at time, 1517691227306, C3-31, CREATE TABLE C4 (emp_no INT, salary INT, from_date NUM, to_date NUM); ThreadID 15, rows inserted: 59250,
METRIC: FINISH INPUT ROWS INSERTION at time, 1517691227573, C3-39, CREATE TABLE C4 (emp_no INT, salary INT, from_date NUM, to_date NUM); ThreadID 16, rows inserted: 59250,
METRIC: FINISH INPUT ROWS INSERTION at time, 1517691227573, C3-9, CREATE TABLE C4 (emp_no INT, salary INT, from_date NUM, to_date NUM); ThreadID 15, rows inserted: 59250,
METRIC: FINISH INPUT ROWS INSERTION at time, 1517691227573, C3-44, CREATE TABLE C4 (emp_no INT, salary INT, from_date NUM, to_date NUM); ThreadID 16, rows inserted: 59250,
METRIC: FINISH INPUT ROWS INSERTION at time, 1517691227624, C3-30, CREATE TABLE C4 (emp_no INT, salary INT, from_date NUM, to_date NUM); ThreadID 15, rows inserted: 59250,
METRIC: FINISH INPUT ROWS INSERTION at time, 1517691227624, C3-6, CREATE TABLE C4 (emp_no INT, salary INT, from_date NUM, to_date NUM); ThreadID 16, rows inserted: 59250,
METRIC: FINISH INPUT ROWS INSERTION at time, 1517691227733, C3-17, CREATE TABLE C4 (emp_no INT, salary INT, from_date NUM, to_date NUM); ThreadID 15, rows inserted: 59250,
METRIC: FINISH INPUT ROWS INSERTION at time, 1517691227733, C3-10, CREATE TABLE C4 (emp_no INT, salary INT, from_date NUM, to_date NUM); ThreadID 15, rows inserted: 59250,
METRIC: FINISH INPUT ROWS INSERTION at time, 1517691227734, C3-45, CREATE TABLE C4 (emp_no INT, salary INT, from_date NUM, to_date NUM); ThreadID 16, rows inserted: 59250,
METRIC: FINISH INPUT ROWS INSERTION at time, 1517691227968, C3-19, CREATE TABLE C4 (emp_no INT, salary INT, from_date NUM, to_date NUM); ThreadID 16, rows inserted: 59250,
METRIC: FINISH INPUT ROWS INSERTION at time, 1517691228038, C3-32, CREATE TABLE C4 (emp_no INT, salary INT, from_date NUM, to_date NUM); ThreadID 15, rows inserted: 59250,
METRIC: FINISH INPUT ROWS INSERTION at time, 1517691235722, C3-5, CREATE TABLE C5 (emp_no INT(11), birth_date DATE, first_name VARCHAR(14), last_name VARCHAR(16), gender TEXT, hire_date DATE); ThreadID 15, rows inserted: 39999,
METRIC: BEGIN INPUT ROWS INSERTION at time, 1517691235848, C2, from C3-5, 'CREATE TABLE C3 (emp_no INT, salary INT, from_date NUM, to_date NUM, emp_no_employees INT(11), birth_date DATE, first_name VARCHAR(14), last_name VARCHAR(16), gender TEXT, hire_date DATE)'; ThreadID 15,
METRIC: OutputCachedRowSetRunnable, FINISH XFER OUTPUT 481 CACHED ROWS  at time, 1517691235891, C3-5, ===> C2,
METRIC: FINISH INPUT ROWS INSERTION at time, 1517691235976, C3-20, CREATE TABLE C5 (emp_no INT(11), birth_date DATE, first_name VARCHAR(14), last_name VARCHAR(16), gender TEXT, hire_date DATE); ThreadID 16, rows inserted: 39999,
METRIC: BEGIN INPUT ROWS INSERTION at time, 1517691236091, C2, from C3-20, 'CREATE TABLE C3 (emp_no INT, salary INT, from_date NUM, to_date NUM, emp_no_employees INT(11), birth_date DATE, first_name VARCHAR(14), last_name VARCHAR(16), gender TEXT, hire_date DATE)'; ThreadID 16,
METRIC: FINISH INPUT ROWS INSERTION at time, 1517691236147, C3-42, CREATE TABLE C5 (emp_no INT(11), birth_date DATE, first_name VARCHAR(14), last_name VARCHAR(16), gender TEXT, hire_date DATE); ThreadID 15, rows inserted: 39999,
METRIC: OutputCachedRowSetRunnable, FINISH XFER OUTPUT 498 CACHED ROWS  at time, 1517691236166, C3-20, ===> C2,
METRIC: BEGIN INPUT ROWS INSERTION at time, 1517691236267, C2, from C3-42, 'CREATE TABLE C3 (emp_no INT, salary INT, from_date NUM, to_date NUM, emp_no_employees INT(11), birth_date DATE, first_name VARCHAR(14), last_name VARCHAR(16), gender TEXT, hire_date DATE)'; ThreadID 17,
METRIC: OutputCachedRowSetRunnable, FINISH XFER OUTPUT 496 CACHED ROWS  at time, 1517691236326, C3-42, ===> C2,
METRIC: FINISH INPUT ROWS INSERTION at time, 1517691236474, C3-2, CREATE TABLE C5 (emp_no INT(11), birth_date DATE, first_name VARCHAR(14), last_name VARCHAR(16), gender TEXT, hire_date DATE); ThreadID 16, rows inserted: 39999,
METRIC: BEGIN INPUT ROWS INSERTION at time, 1517691236582, C2, from C3-2, 'CREATE TABLE C3 (emp_no INT, salary INT, from_date NUM, to_date NUM, emp_no_employees INT(11), birth_date DATE, first_name VARCHAR(14), last_name VARCHAR(16), gender TEXT, hire_date DATE)'; ThreadID 18,
METRIC: FINISH INPUT ROWS INSERTION at time, 1517691236593, C3-25, CREATE TABLE C5 (emp_no INT(11), birth_date DATE, first_name VARCHAR(14), last_name VARCHAR(16), gender TEXT, hire_date DATE); ThreadID 15, rows inserted: 39999,
METRIC: OutputCachedRowSetRunnable, FINISH XFER OUTPUT 465 CACHED ROWS  at time, 1517691236650, C3-2, ===> C2,
METRIC: FINISH INPUT ROWS INSERTION at time, 1517691236695, C3-41, CREATE TABLE C5 (emp_no INT(11), birth_date DATE, first_name VARCHAR(14), last_name VARCHAR(16), gender TEXT, hire_date DATE); ThreadID 15, rows inserted: 39999,
METRIC: FINISH INPUT ROWS INSERTION at time, 1517691236695, C2, CREATE TABLE C3 (emp_no INT, salary INT, from_date NUM, to_date NUM, emp_no_employees INT(11), birth_date DATE, first_name VARCHAR(14), last_name VARCHAR(16), gender TEXT, hire_date DATE); ThreadID 17, rows inserted: 496,
METRIC: BEGIN INPUT ROWS INSERTION at time, 1517691236708, C2, from C3-25, 'CREATE TABLE C3 (emp_no INT, salary INT, from_date NUM, to_date NUM, emp_no_employees INT(11), birth_date DATE, first_name VARCHAR(14), last_name VARCHAR(16), gender TEXT, hire_date DATE)'; ThreadID 19,
METRIC: FINISH INPUT ROWS INSERTION at time, 1517691236770, C3-36, CREATE TABLE C5 (emp_no INT(11), birth_date DATE, first_name VARCHAR(14), last_name VARCHAR(16), gender TEXT, hire_date DATE); ThreadID 15, rows inserted: 39999,
METRIC: FINISH INPUT ROWS INSERTION at time, 1517691236770, C3-47, CREATE TABLE C5 (emp_no INT(11), birth_date DATE, first_name VARCHAR(14), last_name VARCHAR(16), gender TEXT, hire_date DATE); ThreadID 15, rows inserted: 39999,
METRIC: OutputCachedRowSetRunnable, FINISH XFER OUTPUT 503 CACHED ROWS  at time, 1517691236778, C3-25, ===> C2,
METRIC: FINISH INPUT ROWS INSERTION at time, 1517691236779, C3-16, CREATE TABLE C5 (emp_no INT(11), birth_date DATE, first_name VARCHAR(14), last_name VARCHAR(16), gender TEXT, hire_date DATE); ThreadID 16, rows inserted: 39999,
METRIC: FINISH INPUT ROWS INSERTION at time, 1517691236798, C3-34, CREATE TABLE C5 (emp_no INT(11), birth_date DATE, first_name VARCHAR(14), last_name VARCHAR(16), gender TEXT, hire_date DATE); ThreadID 15, rows inserted: 39999,
METRIC: BEGIN INPUT ROWS INSERTION at time, 1517691236830, C2, from C3-41, 'CREATE TABLE C3 (emp_no INT, salary INT, from_date NUM, to_date NUM, emp_no_employees INT(11), birth_date DATE, first_name VARCHAR(14), last_name VARCHAR(16), gender TEXT, hire_date DATE)'; ThreadID 20,
METRIC: OutputCachedRowSetRunnable, FINISH XFER OUTPUT 480 CACHED ROWS  at time, 1517691236893, C3-41, ===> C2,
METRIC: BEGIN INPUT ROWS INSERTION at time, 1517691236895, C2, from C3-36, 'CREATE TABLE C3 (emp_no INT, salary INT, from_date NUM, to_date NUM, emp_no_employees INT(11), birth_date DATE, first_name VARCHAR(14), last_name VARCHAR(16), gender TEXT, hire_date DATE)'; ThreadID 21,
METRIC: BEGIN INPUT ROWS INSERTION at time, 1517691236900, C2, from C3-47, 'CREATE TABLE C3 (emp_no INT, salary INT, from_date NUM, to_date NUM, emp_no_employees INT(11), birth_date DATE, first_name VARCHAR(14), last_name VARCHAR(16), gender TEXT, hire_date DATE)'; ThreadID 22,
METRIC: FINISH INPUT ROWS INSERTION at time, 1517691236900, C3-38, CREATE TABLE C5 (emp_no INT(11), birth_date DATE, first_name VARCHAR(14), last_name VARCHAR(16), gender TEXT, hire_date DATE); ThreadID 15, rows inserted: 39999,
METRIC: BEGIN INPUT ROWS INSERTION at time, 1517691236910, C2, from C3-16, 'CREATE TABLE C3 (emp_no INT, salary INT, from_date NUM, to_date NUM, emp_no_employees INT(11), birth_date DATE, first_name VARCHAR(14), last_name VARCHAR(16), gender TEXT, hire_date DATE)'; ThreadID 23,
METRIC: BEGIN INPUT ROWS INSERTION at time, 1517691236921, C2, from C3-34, 'CREATE TABLE C3 (emp_no INT, salary INT, from_date NUM, to_date NUM, emp_no_employees INT(11), birth_date DATE, first_name VARCHAR(14), last_name VARCHAR(16), gender TEXT, hire_date DATE)'; ThreadID 24,
METRIC: FINISH INPUT ROWS INSERTION at time, 1517691236942, C3-27, CREATE TABLE C5 (emp_no INT(11), birth_date DATE, first_name VARCHAR(14), last_name VARCHAR(16), gender TEXT, hire_date DATE); ThreadID 15, rows inserted: 39999,
METRIC: FINISH INPUT ROWS INSERTION at time, 1517691236939, C2, CREATE TABLE C3 (emp_no INT, salary INT, from_date NUM, to_date NUM, emp_no_employees INT(11), birth_date DATE, first_name VARCHAR(14), last_name VARCHAR(16), gender TEXT, hire_date DATE); ThreadID 16, rows inserted: 498,
METRIC: OutputCachedRowSetRunnable, FINISH XFER OUTPUT 495 CACHED ROWS  at time, 1517691236964, C3-36, ===> C2,
METRIC: OutputCachedRowSetRunnable, FINISH XFER OUTPUT 465 CACHED ROWS  at time, 1517691236972, C3-47, ===> C2,
METRIC: OutputCachedRowSetRunnable, FINISH XFER OUTPUT 454 CACHED ROWS  at time, 1517691236993, C3-16, ===> C2,
METRIC: OutputCachedRowSetRunnable, FINISH XFER OUTPUT 487 CACHED ROWS  at time, 1517691237004, C3-34, ===> C2,
METRIC: BEGIN INPUT ROWS INSERTION at time, 1517691237022, C2, from C3-38, 'CREATE TABLE C3 (emp_no INT, salary INT, from_date NUM, to_date NUM, emp_no_employees INT(11), birth_date DATE, first_name VARCHAR(14), last_name VARCHAR(16), gender TEXT, hire_date DATE)'; ThreadID 25,
METRIC: FINISH INPUT ROWS INSERTION at time, 1517691237054, C2, CREATE TABLE C3 (emp_no INT, salary INT, from_date NUM, to_date NUM, emp_no_employees INT(11), birth_date DATE, first_name VARCHAR(14), last_name VARCHAR(16), gender TEXT, hire_date DATE); ThreadID 15, rows inserted: 481,
METRIC: BEGIN INPUT ROWS INSERTION at time, 1517691237070, C2, from C3-27, 'CREATE TABLE C3 (emp_no INT, salary INT, from_date NUM, to_date NUM, emp_no_employees INT(11), birth_date DATE, first_name VARCHAR(14), last_name VARCHAR(16), gender TEXT, hire_date DATE)'; ThreadID 26,
METRIC: OutputCachedRowSetRunnable, FINISH XFER OUTPUT 482 CACHED ROWS  at time, 1517691237098, C3-38, ===> C2,
METRIC: FINISH INPUT ROWS INSERTION at time, 1517691237134, C2, CREATE TABLE C3 (emp_no INT, salary INT, from_date NUM, to_date NUM, emp_no_employees INT(11), birth_date DATE, first_name VARCHAR(14), last_name VARCHAR(16), gender TEXT, hire_date DATE); ThreadID 19, rows inserted: 503,
METRIC: OutputCachedRowSetRunnable, FINISH XFER OUTPUT 512 CACHED ROWS  at time, 1517691237144, C3-27, ===> C2,
METRIC: FINISH INPUT ROWS INSERTION at time, 1517691237202, C2, CREATE TABLE C3 (emp_no INT, salary INT, from_date NUM, to_date NUM, emp_no_employees INT(11), birth_date DATE, first_name VARCHAR(14), last_name VARCHAR(16), gender TEXT, hire_date DATE); ThreadID 20, rows inserted: 480,
METRIC: FINISH INPUT ROWS INSERTION at time, 1517691237285, C2, CREATE TABLE C3 (emp_no INT, salary INT, from_date NUM, to_date NUM, emp_no_employees INT(11), birth_date DATE, first_name VARCHAR(14), last_name VARCHAR(16), gender TEXT, hire_date DATE); ThreadID 18, rows inserted: 465,
METRIC: FINISH INPUT ROWS INSERTION at time, 1517691237381, C2, CREATE TABLE C3 (emp_no INT, salary INT, from_date NUM, to_date NUM, emp_no_employees INT(11), birth_date DATE, first_name VARCHAR(14), last_name VARCHAR(16), gender TEXT, hire_date DATE); ThreadID 25, rows inserted: 482,
METRIC: FINISH INPUT ROWS INSERTION at time, 1517691237482, C2, CREATE TABLE C3 (emp_no INT, salary INT, from_date NUM, to_date NUM, emp_no_employees INT(11), birth_date DATE, first_name VARCHAR(14), last_name VARCHAR(16), gender TEXT, hire_date DATE); ThreadID 21, rows inserted: 495,
METRIC: FINISH INPUT ROWS INSERTION at time, 1517691237550, C2, CREATE TABLE C3 (emp_no INT, salary INT, from_date NUM, to_date NUM, emp_no_employees INT(11), birth_date DATE, first_name VARCHAR(14), last_name VARCHAR(16), gender TEXT, hire_date DATE); ThreadID 24, rows inserted: 487,
METRIC: FINISH INPUT ROWS INSERTION at time, 1517691237634, C2, CREATE TABLE C3 (emp_no INT, salary INT, from_date NUM, to_date NUM, emp_no_employees INT(11), birth_date DATE, first_name VARCHAR(14), last_name VARCHAR(16), gender TEXT, hire_date DATE); ThreadID 23, rows inserted: 454,
METRIC: FINISH INPUT ROWS INSERTION at time, 1517691237701, C2, CREATE TABLE C3 (emp_no INT, salary INT, from_date NUM, to_date NUM, emp_no_employees INT(11), birth_date DATE, first_name VARCHAR(14), last_name VARCHAR(16), gender TEXT, hire_date DATE); ThreadID 22, rows inserted: 465,
METRIC: FINISH INPUT ROWS INSERTION at time, 1517691237768, C2, CREATE TABLE C3 (emp_no INT, salary INT, from_date NUM, to_date NUM, emp_no_employees INT(11), birth_date DATE, first_name VARCHAR(14), last_name VARCHAR(16), gender TEXT, hire_date DATE); ThreadID 26, rows inserted: 512,
METRIC: FINISH INPUT ROWS INSERTION at time, 1517691237984, C3-12, CREATE TABLE C5 (emp_no INT(11), birth_date DATE, first_name VARCHAR(14), last_name VARCHAR(16), gender TEXT, hire_date DATE); ThreadID 15, rows inserted: 39999,
METRIC: FINISH INPUT ROWS INSERTION at time, 1517691237986, C3-43, CREATE TABLE C5 (emp_no INT(11), birth_date DATE, first_name VARCHAR(14), last_name VARCHAR(16), gender TEXT, hire_date DATE); ThreadID 15, rows inserted: 39999,
METRIC: BEGIN INPUT ROWS INSERTION at time, 1517691238095, C2, from C3-12, 'CREATE TABLE C3 (emp_no INT, salary INT, from_date NUM, to_date NUM, emp_no_employees INT(11), birth_date DATE, first_name VARCHAR(14), last_name VARCHAR(16), gender TEXT, hire_date DATE)'; ThreadID 27,
METRIC: BEGIN INPUT ROWS INSERTION at time, 1517691238102, C2, from C3-43, 'CREATE TABLE C3 (emp_no INT, salary INT, from_date NUM, to_date NUM, emp_no_employees INT(11), birth_date DATE, first_name VARCHAR(14), last_name VARCHAR(16), gender TEXT, hire_date DATE)'; ThreadID 28,
METRIC: OutputCachedRowSetRunnable, FINISH XFER OUTPUT 486 CACHED ROWS  at time, 1517691238155, C3-43, ===> C2,
METRIC: OutputCachedRowSetRunnable, FINISH XFER OUTPUT 498 CACHED ROWS  at time, 1517691238200, C3-12, ===> C2,
METRIC: FINISH INPUT ROWS INSERTION at time, 1517691238221, C2, CREATE TABLE C3 (emp_no INT, salary INT, from_date NUM, to_date NUM, emp_no_employees INT(11), birth_date DATE, first_name VARCHAR(14), last_name VARCHAR(16), gender TEXT, hire_date DATE); ThreadID 28, rows inserted: 486,
METRIC: FINISH INPUT ROWS INSERTION at time, 1517691238254, C3-7, CREATE TABLE C5 (emp_no INT(11), birth_date DATE, first_name VARCHAR(14), last_name VARCHAR(16), gender TEXT, hire_date DATE); ThreadID 15, rows inserted: 39999,
METRIC: FINISH INPUT ROWS INSERTION at time, 1517691238312, C2, CREATE TABLE C3 (emp_no INT, salary INT, from_date NUM, to_date NUM, emp_no_employees INT(11), birth_date DATE, first_name VARCHAR(14), last_name VARCHAR(16), gender TEXT, hire_date DATE); ThreadID 27, rows inserted: 498,
METRIC: FINISH INPUT ROWS INSERTION at time, 1517691238349, C3-3, CREATE TABLE C5 (emp_no INT(11), birth_date DATE, first_name VARCHAR(14), last_name VARCHAR(16), gender TEXT, hire_date DATE); ThreadID 16, rows inserted: 39999,
METRIC: BEGIN INPUT ROWS INSERTION at time, 1517691238365, C2, from C3-7, 'CREATE TABLE C3 (emp_no INT, salary INT, from_date NUM, to_date NUM, emp_no_employees INT(11), birth_date DATE, first_name VARCHAR(14), last_name VARCHAR(16), gender TEXT, hire_date DATE)'; ThreadID 29,
METRIC: FINISH INPUT ROWS INSERTION at time, 1517691238461, C3-4, CREATE TABLE C5 (emp_no INT(11), birth_date DATE, first_name VARCHAR(14), last_name VARCHAR(16), gender TEXT, hire_date DATE); ThreadID 16, rows inserted: 39999,
METRIC: FINISH INPUT ROWS INSERTION at time, 1517691238461, C3-13, CREATE TABLE C5 (emp_no INT(11), birth_date DATE, first_name VARCHAR(14), last_name VARCHAR(16), gender TEXT, hire_date DATE); ThreadID 15, rows inserted: 39999,
METRIC: BEGIN INPUT ROWS INSERTION at time, 1517691238463, C2, from C3-3, 'CREATE TABLE C3 (emp_no INT, salary INT, from_date NUM, to_date NUM, emp_no_employees INT(11), birth_date DATE, first_name VARCHAR(14), last_name VARCHAR(16), gender TEXT, hire_date DATE)'; ThreadID 30,
METRIC: OutputCachedRowSetRunnable, FINISH XFER OUTPUT 446 CACHED ROWS  at time, 1517691238463, C3-7, ===> C2,
METRIC: FINISH INPUT ROWS INSERTION at time, 1517691238491, C3-48, CREATE TABLE C5 (emp_no INT(11), birth_date DATE, first_name VARCHAR(14), last_name VARCHAR(16), gender TEXT, hire_date DATE); ThreadID 15, rows inserted: 39999,
METRIC: FINISH INPUT ROWS INSERTION at time, 1517691238492, C3-37, CREATE TABLE C5 (emp_no INT(11), birth_date DATE, first_name VARCHAR(14), last_name VARCHAR(16), gender TEXT, hire_date DATE); ThreadID 15, rows inserted: 39999,
METRIC: FINISH INPUT ROWS INSERTION at time, 1517691238529, C2, CREATE TABLE C3 (emp_no INT, salary INT, from_date NUM, to_date NUM, emp_no_employees INT(11), birth_date DATE, first_name VARCHAR(14), last_name VARCHAR(16), gender TEXT, hire_date DATE); ThreadID 29, rows inserted: 446,
METRIC: OutputCachedRowSetRunnable, FINISH XFER OUTPUT 525 CACHED ROWS  at time, 1517691238530, C3-3, ===> C2,
METRIC: BEGIN INPUT ROWS INSERTION at time, 1517691238574, C2, from C3-4, 'CREATE TABLE C3 (emp_no INT, salary INT, from_date NUM, to_date NUM, emp_no_employees INT(11), birth_date DATE, first_name VARCHAR(14), last_name VARCHAR(16), gender TEXT, hire_date DATE)'; ThreadID 31,
METRIC: BEGIN INPUT ROWS INSERTION at time, 1517691238578, C2, from C3-13, 'CREATE TABLE C3 (emp_no INT, salary INT, from_date NUM, to_date NUM, emp_no_employees INT(11), birth_date DATE, first_name VARCHAR(14), last_name VARCHAR(16), gender TEXT, hire_date DATE)'; ThreadID 32,
METRIC: FINISH INPUT ROWS INSERTION at time, 1517691238584, C3-15, CREATE TABLE C5 (emp_no INT(11), birth_date DATE, first_name VARCHAR(14), last_name VARCHAR(16), gender TEXT, hire_date DATE); ThreadID 16, rows inserted: 39999,
METRIC: FINISH INPUT ROWS INSERTION at time, 1517691238597, C2, CREATE TABLE C3 (emp_no INT, salary INT, from_date NUM, to_date NUM, emp_no_employees INT(11), birth_date DATE, first_name VARCHAR(14), last_name VARCHAR(16), gender TEXT, hire_date DATE); ThreadID 30, rows inserted: 525,
METRIC: BEGIN INPUT ROWS INSERTION at time, 1517691238607, C2, from C3-37, 'CREATE TABLE C3 (emp_no INT, salary INT, from_date NUM, to_date NUM, emp_no_employees INT(11), birth_date DATE, first_name VARCHAR(14), last_name VARCHAR(16), gender TEXT, hire_date DATE)'; ThreadID 33,
METRIC: BEGIN INPUT ROWS INSERTION at time, 1517691238610, C2, from C3-48, 'CREATE TABLE C3 (emp_no INT, salary INT, from_date NUM, to_date NUM, emp_no_employees INT(11), birth_date DATE, first_name VARCHAR(14), last_name VARCHAR(16), gender TEXT, hire_date DATE)'; ThreadID 34,
METRIC: OutputCachedRowSetRunnable, FINISH XFER OUTPUT 480 CACHED ROWS  at time, 1517691238639, C3-13, ===> C2,
METRIC: OutputCachedRowSetRunnable, FINISH XFER OUTPUT 500 CACHED ROWS  at time, 1517691238655, C3-4, ===> C2,
METRIC: OutputCachedRowSetRunnable, FINISH XFER OUTPUT 494 CACHED ROWS  at time, 1517691238673, C3-48, ===> C2,
METRIC: BEGIN INPUT ROWS INSERTION at time, 1517691238701, C2, from C3-15, 'CREATE TABLE C3 (emp_no INT, salary INT, from_date NUM, to_date NUM, emp_no_employees INT(11), birth_date DATE, first_name VARCHAR(14), last_name VARCHAR(16), gender TEXT, hire_date DATE)'; ThreadID 35,
METRIC: FINISH INPUT ROWS INSERTION at time, 1517691238732, C2, CREATE TABLE C3 (emp_no INT, salary INT, from_date NUM, to_date NUM, emp_no_employees INT(11), birth_date DATE, first_name VARCHAR(14), last_name VARCHAR(16), gender TEXT, hire_date DATE); ThreadID 32, rows inserted: 480,
METRIC: OutputCachedRowSetRunnable, FINISH XFER OUTPUT 450 CACHED ROWS  at time, 1517691238749, C3-37, ===> C2,
METRIC: OutputCachedRowSetRunnable, FINISH XFER OUTPUT 476 CACHED ROWS  at time, 1517691238755, C3-15, ===> C2,
METRIC: FINISH INPUT ROWS INSERTION at time, 1517691238780, C3-23, CREATE TABLE C5 (emp_no INT(11), birth_date DATE, first_name VARCHAR(14), last_name VARCHAR(16), gender TEXT, hire_date DATE); ThreadID 16, rows inserted: 39999,
METRIC: FINISH INPUT ROWS INSERTION at time, 1517691238796, C2, CREATE TABLE C3 (emp_no INT, salary INT, from_date NUM, to_date NUM, emp_no_employees INT(11), birth_date DATE, first_name VARCHAR(14), last_name VARCHAR(16), gender TEXT, hire_date DATE); ThreadID 34, rows inserted: 494,
METRIC: FINISH INPUT ROWS INSERTION at time, 1517691238846, C3-29, CREATE TABLE C5 (emp_no INT(11), birth_date DATE, first_name VARCHAR(14), last_name VARCHAR(16), gender TEXT, hire_date DATE); ThreadID 15, rows inserted: 39999,
METRIC: FINISH INPUT ROWS INSERTION at time, 1517691238846, C3-35, CREATE TABLE C5 (emp_no INT(11), birth_date DATE, first_name VARCHAR(14), last_name VARCHAR(16), gender TEXT, hire_date DATE); ThreadID 16, rows inserted: 39999,
METRIC: FINISH INPUT ROWS INSERTION at time, 1517691238846, C3-33, CREATE TABLE C5 (emp_no INT(11), birth_date DATE, first_name VARCHAR(14), last_name VARCHAR(16), gender TEXT, hire_date DATE); ThreadID 16, rows inserted: 39999,
METRIC: BEGIN INPUT ROWS INSERTION at time, 1517691238890, C2, from C3-23, 'CREATE TABLE C3 (emp_no INT, salary INT, from_date NUM, to_date NUM, emp_no_employees INT(11), birth_date DATE, first_name VARCHAR(14), last_name VARCHAR(16), gender TEXT, hire_date DATE)'; ThreadID 36,
METRIC: FINISH INPUT ROWS INSERTION at time, 1517691238905, C2, CREATE TABLE C3 (emp_no INT, salary INT, from_date NUM, to_date NUM, emp_no_employees INT(11), birth_date DATE, first_name VARCHAR(14), last_name VARCHAR(16), gender TEXT, hire_date DATE); ThreadID 31, rows inserted: 500,
METRIC: OutputCachedRowSetRunnable, FINISH XFER OUTPUT 483 CACHED ROWS  at time, 1517691238955, C3-23, ===> C2,
METRIC: FINISH INPUT ROWS INSERTION at time, 1517691238960, C2, CREATE TABLE C3 (emp_no INT, salary INT, from_date NUM, to_date NUM, emp_no_employees INT(11), birth_date DATE, first_name VARCHAR(14), last_name VARCHAR(16), gender TEXT, hire_date DATE); ThreadID 35, rows inserted: 476,
METRIC: BEGIN INPUT ROWS INSERTION at time, 1517691238968, C2, from C3-29, 'CREATE TABLE C3 (emp_no INT, salary INT, from_date NUM, to_date NUM, emp_no_employees INT(11), birth_date DATE, first_name VARCHAR(14), last_name VARCHAR(16), gender TEXT, hire_date DATE)'; ThreadID 37,
METRIC: BEGIN INPUT ROWS INSERTION at time, 1517691238971, C2, from C3-33, 'CREATE TABLE C3 (emp_no INT, salary INT, from_date NUM, to_date NUM, emp_no_employees INT(11), birth_date DATE, first_name VARCHAR(14), last_name VARCHAR(16), gender TEXT, hire_date DATE)'; ThreadID 38,
METRIC: BEGIN INPUT ROWS INSERTION at time, 1517691238976, C2, from C3-35, 'CREATE TABLE C3 (emp_no INT, salary INT, from_date NUM, to_date NUM, emp_no_employees INT(11), birth_date DATE, first_name VARCHAR(14), last_name VARCHAR(16), gender TEXT, hire_date DATE)'; ThreadID 39,
METRIC: OutputCachedRowSetRunnable, FINISH XFER OUTPUT 499 CACHED ROWS  at time, 1517691239027, C3-29, ===> C2,
METRIC: OutputCachedRowSetRunnable, FINISH XFER OUTPUT 456 CACHED ROWS  at time, 1517691239032, C3-35, ===> C2,
METRIC: FINISH INPUT ROWS INSERTION at time, 1517691239048, C2, CREATE TABLE C3 (emp_no INT, salary INT, from_date NUM, to_date NUM, emp_no_employees INT(11), birth_date DATE, first_name VARCHAR(14), last_name VARCHAR(16), gender TEXT, hire_date DATE); ThreadID 33, rows inserted: 450,
METRIC: OutputCachedRowSetRunnable, FINISH XFER OUTPUT 494 CACHED ROWS  at time, 1517691239091, C3-33, ===> C2,
METRIC: FINISH INPUT ROWS INSERTION at time, 1517691239131, C2, CREATE TABLE C3 (emp_no INT, salary INT, from_date NUM, to_date NUM, emp_no_employees INT(11), birth_date DATE, first_name VARCHAR(14), last_name VARCHAR(16), gender TEXT, hire_date DATE); ThreadID 36, rows inserted: 483,
METRIC: FINISH INPUT ROWS INSERTION at time, 1517691239215, C2, CREATE TABLE C3 (emp_no INT, salary INT, from_date NUM, to_date NUM, emp_no_employees INT(11), birth_date DATE, first_name VARCHAR(14), last_name VARCHAR(16), gender TEXT, hire_date DATE); ThreadID 39, rows inserted: 456,
METRIC: FINISH INPUT ROWS INSERTION at time, 1517691239270, C3-14, CREATE TABLE C5 (emp_no INT(11), birth_date DATE, first_name VARCHAR(14), last_name VARCHAR(16), gender TEXT, hire_date DATE); ThreadID 16, rows inserted: 39999,
METRIC: FINISH INPUT ROWS INSERTION at time, 1517691239313, C2, CREATE TABLE C3 (emp_no INT, salary INT, from_date NUM, to_date NUM, emp_no_employees INT(11), birth_date DATE, first_name VARCHAR(14), last_name VARCHAR(16), gender TEXT, hire_date DATE); ThreadID 37, rows inserted: 499,
METRIC: BEGIN INPUT ROWS INSERTION at time, 1517691239376, C2, from C3-14, 'CREATE TABLE C3 (emp_no INT, salary INT, from_date NUM, to_date NUM, emp_no_employees INT(11), birth_date DATE, first_name VARCHAR(14), last_name VARCHAR(16), gender TEXT, hire_date DATE)'; ThreadID 40,
METRIC: FINISH INPUT ROWS INSERTION at time, 1517691239397, C3-21, CREATE TABLE C5 (emp_no INT(11), birth_date DATE, first_name VARCHAR(14), last_name VARCHAR(16), gender TEXT, hire_date DATE); ThreadID 16, rows inserted: 39999,
METRIC: FINISH INPUT ROWS INSERTION at time, 1517691239398, C2, CREATE TABLE C3 (emp_no INT, salary INT, from_date NUM, to_date NUM, emp_no_employees INT(11), birth_date DATE, first_name VARCHAR(14), last_name VARCHAR(16), gender TEXT, hire_date DATE); ThreadID 38, rows inserted: 494,
METRIC: FINISH INPUT ROWS INSERTION at time, 1517691239400, C3, CREATE TABLE C5 (emp_no INT(11), birth_date DATE, first_name VARCHAR(14), last_name VARCHAR(16), gender TEXT, hire_date DATE); ThreadID 16, rows inserted: 39999,
METRIC: OutputCachedRowSetRunnable, FINISH XFER OUTPUT 449 CACHED ROWS  at time, 1517691239433, C3-14, ===> C2,
METRIC: FINISH INPUT ROWS INSERTION at time, 1517691239490, C3-22, CREATE TABLE C5 (emp_no INT(11), birth_date DATE, first_name VARCHAR(14), last_name VARCHAR(16), gender TEXT, hire_date DATE); ThreadID 15, rows inserted: 39999,
METRIC: BEGIN INPUT ROWS INSERTION at time, 1517691239510, C2, from C3-21, 'CREATE TABLE C3 (emp_no INT, salary INT, from_date NUM, to_date NUM, emp_no_employees INT(11), birth_date DATE, first_name VARCHAR(14), last_name VARCHAR(16), gender TEXT, hire_date DATE)'; ThreadID 41,
METRIC: BEGIN INPUT ROWS INSERTION at time, 1517691239520, C2, from C3, 'CREATE TABLE C3 (emp_no INT, salary INT, from_date NUM, to_date NUM, emp_no_employees INT(11), birth_date DATE, first_name VARCHAR(14), last_name VARCHAR(16), gender TEXT, hire_date DATE)'; ThreadID 42,
METRIC: FINISH INPUT ROWS INSERTION at time, 1517691239532, C2, CREATE TABLE C3 (emp_no INT, salary INT, from_date NUM, to_date NUM, emp_no_employees INT(11), birth_date DATE, first_name VARCHAR(14), last_name VARCHAR(16), gender TEXT, hire_date DATE); ThreadID 40, rows inserted: 449,
METRIC: FINISH INPUT ROWS INSERTION at time, 1517691239558, C3-40, CREATE TABLE C5 (emp_no INT(11), birth_date DATE, first_name VARCHAR(14), last_name VARCHAR(16), gender TEXT, hire_date DATE); ThreadID 15, rows inserted: 39999,
METRIC: FINISH INPUT ROWS INSERTION at time, 1517691239576, C3-18, CREATE TABLE C5 (emp_no INT(11), birth_date DATE, first_name VARCHAR(14), last_name VARCHAR(16), gender TEXT, hire_date DATE); ThreadID 16, rows inserted: 39999,
METRIC: OutputCachedRowSetRunnable, FINISH XFER OUTPUT 493 CACHED ROWS  at time, 1517691239583, C3, ===> C2,
METRIC: BEGIN INPUT ROWS INSERTION at time, 1517691239615, C2, from C3-22, 'CREATE TABLE C3 (emp_no INT, salary INT, from_date NUM, to_date NUM, emp_no_employees INT(11), birth_date DATE, first_name VARCHAR(14), last_name VARCHAR(16), gender TEXT, hire_date DATE)'; ThreadID 43,
METRIC: OutputCachedRowSetRunnable, FINISH XFER OUTPUT 535 CACHED ROWS  at time, 1517691239630, C3-21, ===> C2,
METRIC: FINISH INPUT ROWS INSERTION at time, 1517691239668, C3-24, CREATE TABLE C5 (emp_no INT(11), birth_date DATE, first_name VARCHAR(14), last_name VARCHAR(16), gender TEXT, hire_date DATE); ThreadID 16, rows inserted: 39999,
METRIC: FINISH INPUT ROWS INSERTION at time, 1517691239669, C2, CREATE TABLE C3 (emp_no INT, salary INT, from_date NUM, to_date NUM, emp_no_employees INT(11), birth_date DATE, first_name VARCHAR(14), last_name VARCHAR(16), gender TEXT, hire_date DATE); ThreadID 42, rows inserted: 493,
METRIC: FINISH INPUT ROWS INSERTION at time, 1517691239669, C3-26, CREATE TABLE C5 (emp_no INT(11), birth_date DATE, first_name VARCHAR(14), last_name VARCHAR(16), gender TEXT, hire_date DATE); ThreadID 16, rows inserted: 39999,
METRIC: OutputCachedRowSetRunnable, FINISH XFER OUTPUT 500 CACHED ROWS  at time, 1517691239670, C3-22, ===> C2,
METRIC: FINISH INPUT ROWS INSERTION at time, 1517691239676, C3-28, CREATE TABLE C5 (emp_no INT(11), birth_date DATE, first_name VARCHAR(14), last_name VARCHAR(16), gender TEXT, hire_date DATE); ThreadID 16, rows inserted: 39999,
METRIC: BEGIN INPUT ROWS INSERTION at time, 1517691239681, C2, from C3-40, 'CREATE TABLE C3 (emp_no INT, salary INT, from_date NUM, to_date NUM, emp_no_employees INT(11), birth_date DATE, first_name VARCHAR(14), last_name VARCHAR(16), gender TEXT, hire_date DATE)'; ThreadID 44,
METRIC: BEGIN INPUT ROWS INSERTION at time, 1517691239708, C2, from C3-18, 'CREATE TABLE C3 (emp_no INT, salary INT, from_date NUM, to_date NUM, emp_no_employees INT(11), birth_date DATE, first_name VARCHAR(14), last_name VARCHAR(16), gender TEXT, hire_date DATE)'; ThreadID 45,
METRIC: FINISH INPUT ROWS INSERTION at time, 1517691239727, C3-46, CREATE TABLE C5 (emp_no INT(11), birth_date DATE, first_name VARCHAR(14), last_name VARCHAR(16), gender TEXT, hire_date DATE); ThreadID 15, rows inserted: 39999,
METRIC: FINISH INPUT ROWS INSERTION at time, 1517691239751, C2, CREATE TABLE C3 (emp_no INT, salary INT, from_date NUM, to_date NUM, emp_no_employees INT(11), birth_date DATE, first_name VARCHAR(14), last_name VARCHAR(16), gender TEXT, hire_date DATE); ThreadID 41, rows inserted: 535,
METRIC: OutputCachedRowSetRunnable, FINISH XFER OUTPUT 479 CACHED ROWS  at time, 1517691239766, C3-18, ===> C2,
METRIC: OutputCachedRowSetRunnable, FINISH XFER OUTPUT 500 CACHED ROWS  at time, 1517691239796, C3-40, ===> C2,
METRIC: BEGIN INPUT ROWS INSERTION at time, 1517691239819, C2, from C3-24, 'CREATE TABLE C3 (emp_no INT, salary INT, from_date NUM, to_date NUM, emp_no_employees INT(11), birth_date DATE, first_name VARCHAR(14), last_name VARCHAR(16), gender TEXT, hire_date DATE)'; ThreadID 46,
METRIC: BEGIN INPUT ROWS INSERTION at time, 1517691239820, C2, from C3-26, 'CREATE TABLE C3 (emp_no INT, salary INT, from_date NUM, to_date NUM, emp_no_employees INT(11), birth_date DATE, first_name VARCHAR(14), last_name VARCHAR(16), gender TEXT, hire_date DATE)'; ThreadID 47,
METRIC: BEGIN INPUT ROWS INSERTION at time, 1517691239822, C2, from C3-28, 'CREATE TABLE C3 (emp_no INT, salary INT, from_date NUM, to_date NUM, emp_no_employees INT(11), birth_date DATE, first_name VARCHAR(14), last_name VARCHAR(16), gender TEXT, hire_date DATE)'; ThreadID 48,
METRIC: FINISH INPUT ROWS INSERTION at time, 1517691239845, C2, CREATE TABLE C3 (emp_no INT, salary INT, from_date NUM, to_date NUM, emp_no_employees INT(11), birth_date DATE, first_name VARCHAR(14), last_name VARCHAR(16), gender TEXT, hire_date DATE); ThreadID 43, rows inserted: 500,
METRIC: OutputCachedRowSetRunnable, FINISH XFER OUTPUT 470 CACHED ROWS  at time, 1517691239849, C3-26, ===> C2,
METRIC: OutputCachedRowSetRunnable, FINISH XFER OUTPUT 457 CACHED ROWS  at time, 1517691239852, C3-24, ===> C2,
METRIC: OutputCachedRowSetRunnable, FINISH XFER OUTPUT 459 CACHED ROWS  at time, 1517691239855, C3-28, ===> C2,
METRIC: BEGIN INPUT ROWS INSERTION at time, 1517691239868, C2, from C3-46, 'CREATE TABLE C3 (emp_no INT, salary INT, from_date NUM, to_date NUM, emp_no_employees INT(11), birth_date DATE, first_name VARCHAR(14), last_name VARCHAR(16), gender TEXT, hire_date DATE)'; ThreadID 49,
METRIC: FINISH INPUT ROWS INSERTION at time, 1517691239930, C2, CREATE TABLE C3 (emp_no INT, salary INT, from_date NUM, to_date NUM, emp_no_employees INT(11), birth_date DATE, first_name VARCHAR(14), last_name VARCHAR(16), gender TEXT, hire_date DATE); ThreadID 44, rows inserted: 500,
METRIC: OutputCachedRowSetRunnable, FINISH XFER OUTPUT 447 CACHED ROWS  at time, 1517691239945, C3-46, ===> C2,
METRIC: FINISH INPUT ROWS INSERTION at time, 1517691240055, C2, CREATE TABLE C3 (emp_no INT, salary INT, from_date NUM, to_date NUM, emp_no_employees INT(11), birth_date DATE, first_name VARCHAR(14), last_name VARCHAR(16), gender TEXT, hire_date DATE); ThreadID 45, rows inserted: 479,
METRIC: FINISH INPUT ROWS INSERTION at time, 1517691240147, C2, CREATE TABLE C3 (emp_no INT, salary INT, from_date NUM, to_date NUM, emp_no_employees INT(11), birth_date DATE, first_name VARCHAR(14), last_name VARCHAR(16), gender TEXT, hire_date DATE); ThreadID 46, rows inserted: 457,
METRIC: FINISH INPUT ROWS INSERTION at time, 1517691240196, C2, CREATE TABLE C3 (emp_no INT, salary INT, from_date NUM, to_date NUM, emp_no_employees INT(11), birth_date DATE, first_name VARCHAR(14), last_name VARCHAR(16), gender TEXT, hire_date DATE); ThreadID 47, rows inserted: 470,
METRIC: FINISH INPUT ROWS INSERTION at time, 1517691240289, C2, CREATE TABLE C3 (emp_no INT, salary INT, from_date NUM, to_date NUM, emp_no_employees INT(11), birth_date DATE, first_name VARCHAR(14), last_name VARCHAR(16), gender TEXT, hire_date DATE); ThreadID 48, rows inserted: 459,
METRIC: FINISH INPUT ROWS INSERTION at time, 1517691240348, C2, CREATE TABLE C3 (emp_no INT, salary INT, from_date NUM, to_date NUM, emp_no_employees INT(11), birth_date DATE, first_name VARCHAR(14), last_name VARCHAR(16), gender TEXT, hire_date DATE); ThreadID 49, rows inserted: 447,
METRIC: FINISH INPUT ROWS INSERTION at time, 1517691240609, C3-11, CREATE TABLE C5 (emp_no INT(11), birth_date DATE, first_name VARCHAR(14), last_name VARCHAR(16), gender TEXT, hire_date DATE); ThreadID 15, rows inserted: 39999,
METRIC: BEGIN INPUT ROWS INSERTION at time, 1517691240718, C2, from C3-11, 'CREATE TABLE C3 (emp_no INT, salary INT, from_date NUM, to_date NUM, emp_no_employees INT(11), birth_date DATE, first_name VARCHAR(14), last_name VARCHAR(16), gender TEXT, hire_date DATE)'; ThreadID 50,
METRIC: OutputCachedRowSetRunnable, FINISH XFER OUTPUT 517 CACHED ROWS  at time, 1517691240779, C3-11, ===> C2,
METRIC: FINISH INPUT ROWS INSERTION at time, 1517691240848, C2, CREATE TABLE C3 (emp_no INT, salary INT, from_date NUM, to_date NUM, emp_no_employees INT(11), birth_date DATE, first_name VARCHAR(14), last_name VARCHAR(16), gender TEXT, hire_date DATE); ThreadID 50, rows inserted: 517,
METRIC: FINISH INPUT ROWS INSERTION at time, 1517691241174, C3-31, CREATE TABLE C5 (emp_no INT(11), birth_date DATE, first_name VARCHAR(14), last_name VARCHAR(16), gender TEXT, hire_date DATE); ThreadID 16, rows inserted: 39999,
METRIC: FINISH INPUT ROWS INSERTION at time, 1517691241175, C3-8, CREATE TABLE C5 (emp_no INT(11), birth_date DATE, first_name VARCHAR(14), last_name VARCHAR(16), gender TEXT, hire_date DATE); ThreadID 16, rows inserted: 39999,
METRIC: BEGIN INPUT ROWS INSERTION at time, 1517691241294, C2, from C3-8, 'CREATE TABLE C3 (emp_no INT, salary INT, from_date NUM, to_date NUM, emp_no_employees INT(11), birth_date DATE, first_name VARCHAR(14), last_name VARCHAR(16), gender TEXT, hire_date DATE)'; ThreadID 51,
METRIC: BEGIN INPUT ROWS INSERTION at time, 1517691241295, C2, from C3-31, 'CREATE TABLE C3 (emp_no INT, salary INT, from_date NUM, to_date NUM, emp_no_employees INT(11), birth_date DATE, first_name VARCHAR(14), last_name VARCHAR(16), gender TEXT, hire_date DATE)'; ThreadID 52,
METRIC: OutputCachedRowSetRunnable, FINISH XFER OUTPUT 500 CACHED ROWS  at time, 1517691241354, C3-31, ===> C2,
METRIC: OutputCachedRowSetRunnable, FINISH XFER OUTPUT 521 CACHED ROWS  at time, 1517691241362, C3-8, ===> C2,
METRIC: FINISH INPUT ROWS INSERTION at time, 1517691241458, C2, CREATE TABLE C3 (emp_no INT, salary INT, from_date NUM, to_date NUM, emp_no_employees INT(11), birth_date DATE, first_name VARCHAR(14), last_name VARCHAR(16), gender TEXT, hire_date DATE); ThreadID 52, rows inserted: 500,
METRIC: FINISH INPUT ROWS INSERTION at time, 1517691241533, C2, CREATE TABLE C3 (emp_no INT, salary INT, from_date NUM, to_date NUM, emp_no_employees INT(11), birth_date DATE, first_name VARCHAR(14), last_name VARCHAR(16), gender TEXT, hire_date DATE); ThreadID 51, rows inserted: 521,
METRIC: FINISH INPUT ROWS INSERTION at time, 1517691241554, C3-45, CREATE TABLE C5 (emp_no INT(11), birth_date DATE, first_name VARCHAR(14), last_name VARCHAR(16), gender TEXT, hire_date DATE); ThreadID 15, rows inserted: 39999,
METRIC: FINISH INPUT ROWS INSERTION at time, 1517691241554, C3-6, CREATE TABLE C5 (emp_no INT(11), birth_date DATE, first_name VARCHAR(14), last_name VARCHAR(16), gender TEXT, hire_date DATE); ThreadID 15, rows inserted: 39999,
METRIC: FINISH INPUT ROWS INSERTION at time, 1517691241555, C3-44, CREATE TABLE C5 (emp_no INT(11), birth_date DATE, first_name VARCHAR(14), last_name VARCHAR(16), gender TEXT, hire_date DATE); ThreadID 15, rows inserted: 39999,
METRIC: FINISH INPUT ROWS INSERTION at time, 1517691241649, C3-9, CREATE TABLE C5 (emp_no INT(11), birth_date DATE, first_name VARCHAR(14), last_name VARCHAR(16), gender TEXT, hire_date DATE); ThreadID 16, rows inserted: 39999,
METRIC: BEGIN INPUT ROWS INSERTION at time, 1517691241674, C2, from C3-44, 'CREATE TABLE C3 (emp_no INT, salary INT, from_date NUM, to_date NUM, emp_no_employees INT(11), birth_date DATE, first_name VARCHAR(14), last_name VARCHAR(16), gender TEXT, hire_date DATE)'; ThreadID 53,
METRIC: BEGIN INPUT ROWS INSERTION at time, 1517691241685, C2, from C3-6, 'CREATE TABLE C3 (emp_no INT, salary INT, from_date NUM, to_date NUM, emp_no_employees INT(11), birth_date DATE, first_name VARCHAR(14), last_name VARCHAR(16), gender TEXT, hire_date DATE)'; ThreadID 54,
METRIC: BEGIN INPUT ROWS INSERTION at time, 1517691241693, C2, from C3-45, 'CREATE TABLE C3 (emp_no INT, salary INT, from_date NUM, to_date NUM, emp_no_employees INT(11), birth_date DATE, first_name VARCHAR(14), last_name VARCHAR(16), gender TEXT, hire_date DATE)'; ThreadID 55,
METRIC: FINISH INPUT ROWS INSERTION at time, 1517691241732, C3-30, CREATE TABLE C5 (emp_no INT(11), birth_date DATE, first_name VARCHAR(14), last_name VARCHAR(16), gender TEXT, hire_date DATE); ThreadID 16, rows inserted: 39999,
METRIC: FINISH INPUT ROWS INSERTION at time, 1517691241732, C3-17, CREATE TABLE C5 (emp_no INT(11), birth_date DATE, first_name VARCHAR(14), last_name VARCHAR(16), gender TEXT, hire_date DATE); ThreadID 16, rows inserted: 39999,
METRIC: FINISH INPUT ROWS INSERTION at time, 1517691241733, C3-10, CREATE TABLE C5 (emp_no INT(11), birth_date DATE, first_name VARCHAR(14), last_name VARCHAR(16), gender TEXT, hire_date DATE); ThreadID 16, rows inserted: 39999,
METRIC: OutputCachedRowSetRunnable, FINISH XFER OUTPUT 477 CACHED ROWS  at time, 1517691241746, C3-6, ===> C2,
METRIC: FINISH INPUT ROWS INSERTION at time, 1517691241751, C3-39, CREATE TABLE C5 (emp_no INT(11), birth_date DATE, first_name VARCHAR(14), last_name VARCHAR(16), gender TEXT, hire_date DATE); ThreadID 15, rows inserted: 39999,
METRIC: OutputCachedRowSetRunnable, FINISH XFER OUTPUT 528 CACHED ROWS  at time, 1517691241765, C3-45, ===> C2,
METRIC: OutputCachedRowSetRunnable, FINISH XFER OUTPUT 496 CACHED ROWS  at time, 1517691241769, C3-44, ===> C2,
METRIC: BEGIN INPUT ROWS INSERTION at time, 1517691241775, C2, from C3-9, 'CREATE TABLE C3 (emp_no INT, salary INT, from_date NUM, to_date NUM, emp_no_employees INT(11), birth_date DATE, first_name VARCHAR(14), last_name VARCHAR(16), gender TEXT, hire_date DATE)'; ThreadID 56,
METRIC: FINISH INPUT ROWS INSERTION at time, 1517691241809, C3-19, CREATE TABLE C5 (emp_no INT(11), birth_date DATE, first_name VARCHAR(14), last_name VARCHAR(16), gender TEXT, hire_date DATE); ThreadID 15, rows inserted: 39999,
METRIC: FINISH INPUT ROWS INSERTION at time, 1517691241810, C3-32, CREATE TABLE C5 (emp_no INT(11), birth_date DATE, first_name VARCHAR(14), last_name VARCHAR(16), gender TEXT, hire_date DATE); ThreadID 16, rows inserted: 39999,
METRIC: FINISH INPUT ROWS INSERTION at time, 1517691241859, C2, CREATE TABLE C3 (emp_no INT, salary INT, from_date NUM, to_date NUM, emp_no_employees INT(11), birth_date DATE, first_name VARCHAR(14), last_name VARCHAR(16), gender TEXT, hire_date DATE); ThreadID 54, rows inserted: 477,
METRIC: BEGIN INPUT ROWS INSERTION at time, 1517691241867, C2, from C3-10, 'CREATE TABLE C3 (emp_no INT, salary INT, from_date NUM, to_date NUM, emp_no_employees INT(11), birth_date DATE, first_name VARCHAR(14), last_name VARCHAR(16), gender TEXT, hire_date DATE)'; ThreadID 57,
METRIC: OutputCachedRowSetRunnable, FINISH XFER OUTPUT 460 CACHED ROWS  at time, 1517691241873, C3-9, ===> C2,
METRIC: BEGIN INPUT ROWS INSERTION at time, 1517691241892, C2, from C3-30, 'CREATE TABLE C3 (emp_no INT, salary INT, from_date NUM, to_date NUM, emp_no_employees INT(11), birth_date DATE, first_name VARCHAR(14), last_name VARCHAR(16), gender TEXT, hire_date DATE)'; ThreadID 58,
METRIC: BEGIN INPUT ROWS INSERTION at time, 1517691241894, C2, from C3-39, 'CREATE TABLE C3 (emp_no INT, salary INT, from_date NUM, to_date NUM, emp_no_employees INT(11), birth_date DATE, first_name VARCHAR(14), last_name VARCHAR(16), gender TEXT, hire_date DATE)'; ThreadID 59,
METRIC: BEGIN INPUT ROWS INSERTION at time, 1517691241908, C2, from C3-17, 'CREATE TABLE C3 (emp_no INT, salary INT, from_date NUM, to_date NUM, emp_no_employees INT(11), birth_date DATE, first_name VARCHAR(14), last_name VARCHAR(16), gender TEXT, hire_date DATE)'; ThreadID 60,
METRIC: BEGIN INPUT ROWS INSERTION at time, 1517691241926, C2, from C3-19, 'CREATE TABLE C3 (emp_no INT, salary INT, from_date NUM, to_date NUM, emp_no_employees INT(11), birth_date DATE, first_name VARCHAR(14), last_name VARCHAR(16), gender TEXT, hire_date DATE)'; ThreadID 61,
METRIC: BEGIN INPUT ROWS INSERTION at time, 1517691241929, C2, from C3-32, 'CREATE TABLE C3 (emp_no INT, salary INT, from_date NUM, to_date NUM, emp_no_employees INT(11), birth_date DATE, first_name VARCHAR(14), last_name VARCHAR(16), gender TEXT, hire_date DATE)'; ThreadID 62,
METRIC: OutputCachedRowSetRunnable, FINISH XFER OUTPUT 448 CACHED ROWS  at time, 1517691241929, C3-10, ===> C2,
METRIC: OutputCachedRowSetRunnable, FINISH XFER OUTPUT 489 CACHED ROWS  at time, 1517691241937, C3-30, ===> C2,
METRIC: OutputCachedRowSetRunnable, FINISH XFER OUTPUT 474 CACHED ROWS  at time, 1517691241946, C3-39, ===> C2,
METRIC: FINISH INPUT ROWS INSERTION at time, 1517691241957, C2, CREATE TABLE C3 (emp_no INT, salary INT, from_date NUM, to_date NUM, emp_no_employees INT(11), birth_date DATE, first_name VARCHAR(14), last_name VARCHAR(16), gender TEXT, hire_date DATE); ThreadID 55, rows inserted: 528,
METRIC: OutputCachedRowSetRunnable, FINISH XFER OUTPUT 464 CACHED ROWS  at time, 1517691241986, C3-19, ===> C2,
METRIC: OutputCachedRowSetRunnable, FINISH XFER OUTPUT 489 CACHED ROWS  at time, 1517691241989, C3-32, ===> C2,
METRIC: OutputCachedRowSetRunnable, FINISH XFER OUTPUT 467 CACHED ROWS  at time, 1517691242024, C3-17, ===> C2,
METRIC: FINISH INPUT ROWS INSERTION at time, 1517691242079, C2, CREATE TABLE C3 (emp_no INT, salary INT, from_date NUM, to_date NUM, emp_no_employees INT(11), birth_date DATE, first_name VARCHAR(14), last_name VARCHAR(16), gender TEXT, hire_date DATE); ThreadID 53, rows inserted: 496,
METRIC: FINISH INPUT ROWS INSERTION at time, 1517691242123, C2, CREATE TABLE C3 (emp_no INT, salary INT, from_date NUM, to_date NUM, emp_no_employees INT(11), birth_date DATE, first_name VARCHAR(14), last_name VARCHAR(16), gender TEXT, hire_date DATE); ThreadID 59, rows inserted: 474,
METRIC: FINISH INPUT ROWS INSERTION at time, 1517691242196, C2, CREATE TABLE C3 (emp_no INT, salary INT, from_date NUM, to_date NUM, emp_no_employees INT(11), birth_date DATE, first_name VARCHAR(14), last_name VARCHAR(16), gender TEXT, hire_date DATE); ThreadID 57, rows inserted: 448,
METRIC: FINISH INPUT ROWS INSERTION at time, 1517691242255, C2, CREATE TABLE C3 (emp_no INT, salary INT, from_date NUM, to_date NUM, emp_no_employees INT(11), birth_date DATE, first_name VARCHAR(14), last_name VARCHAR(16), gender TEXT, hire_date DATE); ThreadID 61, rows inserted: 464,
METRIC: FINISH INPUT ROWS INSERTION at time, 1517691242323, C2, CREATE TABLE C3 (emp_no INT, salary INT, from_date NUM, to_date NUM, emp_no_employees INT(11), birth_date DATE, first_name VARCHAR(14), last_name VARCHAR(16), gender TEXT, hire_date DATE); ThreadID 58, rows inserted: 489,
METRIC: FINISH INPUT ROWS INSERTION at time, 1517691242415, C2, CREATE TABLE C3 (emp_no INT, salary INT, from_date NUM, to_date NUM, emp_no_employees INT(11), birth_date DATE, first_name VARCHAR(14), last_name VARCHAR(16), gender TEXT, hire_date DATE); ThreadID 56, rows inserted: 460,
METRIC: FINISH INPUT ROWS INSERTION at time, 1517691242491, C2, CREATE TABLE C3 (emp_no INT, salary INT, from_date NUM, to_date NUM, emp_no_employees INT(11), birth_date DATE, first_name VARCHAR(14), last_name VARCHAR(16), gender TEXT, hire_date DATE); ThreadID 60, rows inserted: 467,
METRIC: FINISH INPUT ROWS INSERTION at time, 1517691242550, C2, CREATE TABLE C3 (emp_no INT, salary INT, from_date NUM, to_date NUM, emp_no_employees INT(11), birth_date DATE, first_name VARCHAR(14), last_name VARCHAR(16), gender TEXT, hire_date DATE); ThreadID 62, rows inserted: 489,
METRIC: BEGIN INPUT ROWS INSERTION at time, 1517691242674, C1, from C2, 'CREATE TABLE C2 (emp_no_employees INT(11), salary INT)'; ThreadID 15,
METRIC: BEGIN INPUT ROWS INSERTION at time, 1517691242676, C1-2, from C2, 'CREATE TABLE C2 (emp_no_employees INT(11), salary INT)'; ThreadID 15,
METRIC: FINISH XFER OUTPUT ROWS at time, 1517691242826, C2 ===> C1-2,
METRIC: FINISH XFER OUTPUT ROWS at time, 1517691242837, C2 ===> C1,
METRIC: FINISH INPUT ROWS INSERTION at time, 1517691243619, C1-2, CREATE TABLE C2 (emp_no_employees INT(11), salary INT); ThreadID 15, rows inserted: 11612,
METRIC: FINISH INPUT ROWS INSERTION at time, 1517691243650, C1, CREATE TABLE C2 (emp_no_employees INT(11), salary INT); ThreadID 15, rows inserted: 11612,
METRIC: BEGIN INPUT ROWS INSERTION at time, 1517691243752, C1-MERGE, from C1-2, 'CREATE TABLE C1 (emp_no_employees INT(11), salary INT)'; ThreadID 15,
METRIC: BEGIN INPUT ROWS INSERTION at time, 1517691243771, C1-MERGE, from C1, 'CREATE TABLE C1 (emp_no_employees INT(11), salary INT)'; ThreadID 16,
METRIC: OutputCachedRowSetRunnable, FINISH XFER OUTPUT 11612 CACHED ROWS  at time, 1517691244053, C1, ===> C1-MERGE,
METRIC: OutputCachedRowSetRunnable, FINISH XFER OUTPUT 11612 CACHED ROWS  at time, 1517691244075, C1-2, ===> C1-MERGE,
METRIC: FINISH INPUT ROWS INSERTION at time, 1517691244893, C1-MERGE, CREATE TABLE C1 (emp_no_employees INT(11), salary INT); ThreadID 16, rows inserted: 11612,
METRIC: FINISH INPUT ROWS INSERTION at time, 1517691245683, C1-MERGE, CREATE TABLE C1 (emp_no_employees INT(11), salary INT); ThreadID 15, rows inserted: 11612,
METRIC: QUERY COMPLETED APEX WORKER at time, 1517691245741, C1-MERGE,
METRIC: QUERY COMPLETED Master at time, 1517691245742, C1-MERGE,
