May 15, 2018 4:28:04 PM containerizedQuery.Master logQueryState
INFO: 
Master Log: Start Master log
May 15, 2018 4:28:04 PM containerizedQuery.Master logQueryState
INFO: 
Master Log: serializedQueryFileName= employees.txt, rabbitMQ_IP= localhost, composeFileName= docker-compose.yml.Employees, compose Version= 3.3 hostVolume= /home/david/databases/employeesTest LOG_LEVEL= verbose
May 15, 2018 4:33:04 PM containerizedQuery.Master logQueryState
INFO: 
Master Log: 
HASH TEXTUALIZED FORM of QUERY:
{1=1	COMPUTE		ORDER	employees.emp_no, <					2	null	2, 2=2	COMPUTE		PROJECT	employees.emp_no, salaries.salary	3	null	1, 3=3	COMPUTE		JOIN	(CAST(julianday(salaries.to_date) - julianday(employees.hire_date) AS INT) < 730) AND (employees.emp_no == salaries.emp_no)		4	5	6	4, 4=4	COMPUTE		SELECT	salaries.salary < 200000			6	null	6, 5=5	COMPUTE		SELECT	employees.emp_no  < 50000			7	null	1, 6=6	DATA_ONLY	${HOME}/databases/employees6SalariesPartitions/employees.db	[salariesPart_1,salariesPart_2,salariesPart_3,salariesPart_4,salariesPart_5,salariesPart_6
	[emp_no int(11); salary int(11); from_date date; to_date date
, 7=7	DATA_ONLY	${HOME}/databases/employees6SalariesPartitions/employees.db	employees	[emp_no int(11) PRIMARY; birth_date date; first_name  varchar(14); last_name  varchar(16); gender text; hire_date date
}
May 15, 2018 4:33:07 PM containerizedQuery.Master logQueryState
INFO: 
Master Log: 
CONSTRUCT QUERY TREE FROM TEXTUALIZED FORM:
May 15, 2018 4:33:36 PM containerizedQuery.Master logQueryState
INFO: 
Master Log: buildQueryTree: 1	COMPUTE		ORDER	employees.emp_no, <					2	null	2

